<?xml version="1.0" encoding="utf-8"?>
<!-- Generator: Adobe Illustrator 16.0.0, SVG Export Plug-In . SVG Version: 6.00 Build 0)  -->
<!DOCTYPE svg PUBLIC "-//W3C//DTD SVG 1.1//EN" "http://www.w3.org/Graphics/SVG/1.1/DTD/svg11.dtd">
<svg version="1.1" id="Layer_1" xmlns="http://www.w3.org/2000/svg" xmlns:xlink="http://www.w3.org/1999/xlink" x="0px" y="0px"
	 width="251.688px" height="60px" viewBox="207.941 49.571 251.688 60" enable-background="new 207.941 49.571 251.688 60"
	 xml:space="preserve">
<title>logo-new</title>
<desc>Created with Sketch.</desc>
<g id="Page-1">
	<g id="_x37_" transform="translate(-2067.000000, -727.000000)">
		<g id="logo-new" transform="translate(2067.000000, 727.000000)">
			<g id="g7" transform="translate(186.714286, 39.571429)">
				<g id="g9">
					<polygon id="path11" fill="#FFFFFF" points="91.623,25.673 97.655,25.673 97.655,49.264 112.035,49.264 112.035,54.434 
						91.676,54.434 91.676,25.673 					"/>
					<path id="path13" fill="#FFFFFF" d="M123.777,25.673h6.786l10.18,28.761h-6.517l-1.885-5.925H121.73l-1.938,5.925h-6.302
						L123.777,25.673z M123.4,43.555h7.379l-3.609-11.311L123.4,43.555z"/>
					<polygon id="path15" fill="#FFFFFF" points="162.071,25.673 162.071,30.79 153.454,30.79 153.454,54.488 147.421,54.488 
						147.421,30.79 138.75,30.79 138.75,25.673 					"/>
					<path id="path17" fill="#FFFFFF" d="M186.47,51.957c-2.154,2.262-5.333,3.339-9.426,3.339c-4.094,0-7.271-1.131-9.426-3.339
						c-2.908-2.747-4.362-6.679-4.362-11.849c0-5.278,1.454-9.21,4.362-11.849c2.154-2.262,5.332-3.34,9.426-3.34
						c4.093,0,7.271,1.131,9.426,3.34c2.908,2.639,4.362,6.571,4.362,11.849C190.833,45.224,189.378,49.21,186.47,51.957z
						 M182.753,47.595c1.4-1.777,2.101-4.255,2.101-7.487s-0.7-5.709-2.101-7.487s-3.285-2.639-5.655-2.639
						s-4.255,0.862-5.709,2.639c-1.4,1.777-2.101,4.255-2.101,7.487s0.7,5.763,2.101,7.487c1.4,1.777,3.339,2.639,5.709,2.639
						C179.468,50.18,181.353,49.317,182.753,47.595z"/>
					<polygon id="path19" fill="#FFFFFF" points="195.357,25.673 201.282,25.673 201.282,37.522 212.377,25.673 220.132,25.673 
						208.337,37.522 220.725,54.434 213.023,54.434 204.136,41.885 201.228,44.848 201.228,54.488 195.303,54.488 195.303,25.673 
											"/>
					<polygon id="path21" fill="#FFFFFF" points="244.693,30.79 229.451,30.79 229.451,36.876 243.4,36.876 243.4,41.885 
						229.451,41.885 229.451,49.264 245.393,49.264 245.393,54.434 223.58,54.434 223.58,25.673 244.693,25.673 					"/>
					<polygon id="path23" fill="#FFFFFF" points="249.594,25.673 255.896,25.673 267.314,45.709 267.314,25.673 272.916,25.673 
						272.916,54.434 266.883,54.434 255.196,34.021 255.196,54.434 249.594,54.434 					"/>
				</g>
			</g>
			<g id="g25">
				<polygon id="polygon27" fill="#FFFFFF" points="241.12,82.534 247.206,82.534 244.189,74.078 				"/>
				<path id="path29" fill="#FFFFFF" d="M237.941,49.571c-16.535,0-30,13.465-30,30c0,16.589,13.465,30,30,30
					c16.535,0,30-13.465,30-30C267.996,63.036,254.531,49.571,237.941,49.571z M251.353,93.79l-2.047-5.763h-10.18l-2.046,5.763
					h-1.777h-4.309h-6.14h-3.07h-3.016l10.18-28.384h6.086L226.9,88.027h6.086l8.133-22.621l0,0l0,0h6.14l0,0l0,0l10.234,28.384
					H251.353z"/>
			</g>
		</g>
	</g>
</g>
</svg>
