<svg width="22" height="26" viewBox="0 0 22 26" fill="none" xmlns="http://www.w3.org/2000/svg">
<path d="M19.8942 6.71734C19.9388 6.35959 19.9621 5.99534 19.9621 5.6257C19.9621 2.51875 17.4103 0 14.2625 0H4.73724C4.13807 0 3.62652 0.42707 3.52712 1.01024L0.0173175 21.6008C-0.108628 22.3396 0.468416 23.0129 1.22743 23.0129H4.71105C5.31022 23.0129 5.83139 22.5862 5.93074 22.003C5.93074 22.003 5.93655 21.9688 5.94704 21.9072H5.9471L5.46163 24.7554C5.35071 25.4065 5.85927 26 6.52826 26H9.5759C10.104 26 10.5549 25.6236 10.6425 25.1096L11.5083 20.0304C11.6575 19.1548 12.4255 18.5137 13.325 18.5137H14.1256C18.4746 18.5137 22 15.0339 22 10.7415C22 9.08045 21.1682 7.61221 19.8942 6.71734Z" fill="white"/>
<path d="M19.9324 7.21963C21.1156 8.08785 21.875 9.44324 21.875 10.9651C21.875 15.1193 18.3169 18.4985 13.9133 18.4985H13.091C12.1116 18.4985 11.267 19.169 11.1023 20.0961L10.2131 25.1007L10.3362 25.1226L10.2131 25.1008C10.1346 25.5429 9.72748 25.875 9.24084 25.875H6.11101C5.49349 25.875 5.03978 25.3525 5.13874 24.7954L6.76908 15.6187C6.92147 15.1284 7.40088 14.7761 7.96248 14.7761H10.6922C15.3811 14.7761 19.2703 11.4992 19.9324 7.21963Z" fill="white" stroke="#344C60" stroke-width="0.25"/>
</svg>
