<svg width="26" height="26" viewBox="0 0 26 26" fill="none" xmlns="http://www.w3.org/2000/svg">
<path d="M20.2262 10.0107C19.7163 11.6227 19.2064 13.2134 18.6965 14.8253C18.3778 15.8222 16.9968 17.1159 15.5521 17.1159C12.2377 17.0735 8.94458 17.0947 5.6302 17.0947C5.56646 17.0947 5.50272 17.0947 5.41774 17.0947C5.46023 16.9887 5.48148 16.8826 5.52397 16.7766C5.71518 16.2039 5.9064 15.6313 6.07637 15.0374C6.11886 14.8889 6.20384 14.8677 6.33132 14.8677C9.30576 14.8677 12.2802 14.8677 15.2547 14.8677C15.4034 14.8677 15.4459 14.8253 15.4884 14.698C15.9345 13.3194 16.4019 11.9196 16.8481 10.541C16.8694 10.4986 16.8906 10.4349 16.9118 10.3713C13.8099 10.3713 10.7292 10.3713 7.62733 10.3713C7.64857 10.3077 7.64857 10.2652 7.66982 10.2016C7.88228 9.56533 8.09474 8.92904 8.28595 8.29276C8.32845 8.18671 8.37094 8.14429 8.47717 8.14429C11.834 8.14429 15.1909 8.14429 18.569 8.14429C18.7815 8.14429 18.994 8.1655 19.2064 8.25034C19.7588 8.42001 20.0775 8.823 20.205 9.39565C20.205 9.43807 20.2262 9.48049 20.2262 9.52291C20.2262 9.69259 20.2262 9.84105 20.2262 10.0107ZM5.05656 13.68C5.05656 13.6588 5.05656 13.6376 5.05656 13.6164C5.16279 13.2982 5.29026 12.9589 5.41774 12.6407C5.52397 12.3226 5.6302 12.0044 5.73643 11.6863C5.75768 11.6014 5.80017 11.5802 5.88515 11.5802C7.64857 11.5802 9.41199 11.5802 11.1754 11.5802C11.1967 11.5802 11.2392 11.5802 11.2816 11.5802C11.2604 11.6439 11.2604 11.6863 11.2392 11.7287C11.0267 12.3226 10.8355 12.9164 10.623 13.5103C10.6018 13.6376 10.538 13.68 10.4106 13.68C8.68963 13.6588 6.9687 13.68 5.22652 13.68C5.18403 13.68 5.12029 13.68 5.05656 13.68ZM12.6414 -0.000183105C5.65145 -0.000183105 0 5.66277 0 12.6195C0 19.5975 5.65145 25.2392 12.6414 25.2392C19.6313 25.2392 25.2828 19.5975 25.2828 12.6195C25.2828 5.66277 19.6313 -0.000183105 12.6414 -0.000183105Z" fill="white"/>
</svg>
