<?xml version="1.0" encoding="UTF-8"?>
<svg width="222px" height="222px" viewBox="0 0 222 222" version="1.1" xmlns="http://www.w3.org/2000/svg" xmlns:xlink="http://www.w3.org/1999/xlink">
    <!-- Generator: Sketch 47.1 (45422) - http://www.bohemiancoding.com/sketch -->
    <title>Group 4</title>
    <desc>Created with Sketch.</desc>
    <defs>
        <circle id="path-1" cx="110" cy="110" r="95"></circle>
    </defs>
    <g id="Welcome" stroke="none" stroke-width="1" fill="none" fill-rule="evenodd">
        <g id="Partner's-programm" transform="translate(-1269.000000, -5295.000000)">
            <g id="Ad-materials" transform="translate(0.000000, 4827.000000)">
                <g id="Photo" transform="translate(1270.000000, 469.000000)">
                    <g id="Group-4">
                        <circle id="Oval" stroke="#FFFFFF" stroke-width="2" cx="110" cy="110" r="110"></circle>
                        <mask id="mask-2" fill="white">
                            <use xlink:href="#path-1"></use>
                        </mask>
                        <use id="Mask" stroke="#FFFFFF" stroke-width="10" fill="#FFFFFF" xlink:href="#path-1"></use>
                        <g id="photo-camera" mask="url(#mask-2)" fill-rule="nonzero" fill="#404D60">
                            <g transform="translate(70.000000, 72.000000)" id="Shape">
                                <path d="M71.508129,14.4005161 L69.8957419,14.4005161 L69.8957419,1.3243871 C69.8957419,0.611612903 69.3181935,0.0340645161 68.6054194,0.0340645161 L49.5661075,0.0340645161 C48.8533333,0.0340645161 48.2757849,0.611612903 48.2757849,1.3243871 L48.2757849,14.4005161 L40.8020645,14.4005161 C36.463828,14.4005161 35.1829677,15.8301935 32.376086,18.9625806 C31.7147527,19.7006452 30.975828,20.5252473 30.0705376,21.4823226 L28.0566022,21.4823226 L28.0566022,18.5944086 C28.0566022,17.0766452 26.8216774,15.8418925 25.303914,15.8418925 L15.7804731,15.8418925 C14.2627097,15.8418925 13.027957,17.0766452 13.027957,18.5944086 L13.027957,21.4821505 L10.916129,21.4821505 C4.89703226,21.4821505 0,26.3791828 0,32.3982796 L0,65.9365161 C0,68.3674839 0.92111828,70.6472258 2.59337634,72.3557849 C4.28043011,74.0794839 6.54589247,75.0286452 8.97221505,75.0286452 L70.7877849,75.0286452 C75.8012903,75.0286452 79.880086,70.9500215 79.880086,65.9365161 L79.880086,22.7724731 C79.880086,18.1562151 76.1243871,14.4005161 71.508129,14.4005161 Z M50.8564301,2.61470968 L67.3150968,2.61470968 L67.3150968,9.15234409 L50.8564301,9.15234409 L50.8564301,2.61470968 Z M50.8564301,11.7329892 L67.3150968,11.7329892 L67.3150968,14.4005161 L50.8564301,14.4005161 L50.8564301,11.7329892 Z M15.6086022,18.5944086 C15.6086022,18.4996129 15.6856774,18.4225376 15.7804731,18.4225376 L25.3037419,18.4225376 C25.3987097,18.4225376 25.4757849,18.4996129 25.4757849,18.5944086 L25.4757849,21.4821505 L15.6086022,21.4821505 L15.6086022,18.5944086 Z M10.916129,24.0627957 C15.5124301,24.0627957 19.2517849,27.8019785 19.2517849,32.3982796 C19.2517849,36.9945806 15.5124301,40.7339355 10.916129,40.7339355 C6.31982796,40.7339355 2.58064516,36.9945806 2.58064516,32.3982796 C2.58064516,27.8019785 6.31982796,24.0627957 10.916129,24.0627957 Z M77.2994409,65.9366882 C77.2994409,69.5270538 74.3783226,72.448172 70.7877849,72.448172 L8.97221505,72.448172 C5.38804301,72.448 2.58064516,69.5877849 2.58064516,65.9366882 L2.58064516,39.436043 C4.58460215,41.8059355 7.57694624,43.3147527 10.916129,43.3147527 C14.2554839,43.3147527 17.247828,41.8059355 19.2517849,39.436043 L19.2517849,68.5772043 C19.2517849,69.2899785 19.8293333,69.8675269 20.5421075,69.8675269 C21.2548817,69.8675269 21.8324301,69.2899785 21.8324301,68.5772043 L21.8324301,32.3982796 C21.8324301,29.0589247 20.3236129,26.0667527 17.9537204,24.0627957 L30.6233118,24.0627957 C30.9751398,24.0627957 31.3116559,23.9191398 31.5549247,23.6652043 C32.6663226,22.5052903 33.5709247,21.495914 34.2976344,20.6847312 C37.0446452,17.6190968 37.616172,16.9811613 40.8017204,16.9811613 L49.5657634,16.9811613 L68.6050753,16.9811613 L71.5077849,16.9811613 C74.7012473,16.9811613 77.2990968,19.5791828 77.2990968,22.7724731 L77.2990968,65.9366882 L77.2994409,65.9366882 Z"></path>
                                <path d="M49.5661075,22.1768602 C37.1389247,22.1768602 27.0284731,32.2873118 27.0284731,44.7144946 C27.0284731,57.1416774 37.1389247,67.252129 49.5661075,67.252129 C61.9932903,67.252129 72.1037419,57.1416774 72.1037419,44.7144946 C72.1037419,32.2873118 61.9932903,22.1768602 49.5661075,22.1768602 Z M49.5661075,64.6714839 C38.5617204,64.6714839 29.6091183,55.7188817 29.6091183,44.7144946 C29.6091183,33.7101075 38.5617204,24.7575054 49.5661075,24.7575054 C60.5704946,24.7575054 69.5230968,33.7101075 69.5230968,44.7144946 C69.5230968,55.7188817 60.5703226,64.6714839 49.5661075,64.6714839 Z"></path>
                                <path d="M49.5659355,27.3381505 C39.9846882,27.3381505 32.1895914,35.1332473 32.1895914,44.7144946 C32.1895914,54.2957419 39.9846882,62.0908387 49.5659355,62.0908387 C59.1471828,62.0908387 66.9422796,54.2957419 66.9422796,44.7144946 C66.9422796,35.1332473 59.1471828,27.3381505 49.5659355,27.3381505 Z M49.5659355,59.5101935 C41.4074839,59.5101935 34.7702366,52.8729462 34.7702366,44.7144946 C34.7702366,36.556043 41.4074839,29.9187957 49.5659355,29.9187957 C57.7243871,29.9187957 64.3616344,36.556043 64.3616344,44.7144946 C64.3616344,52.8729462 57.7242151,59.5101935 49.5659355,59.5101935 Z"></path>
                                <path d="M53.9607742,43.424172 C53.248,43.424172 52.6704516,44.0017204 52.6704516,44.7144946 C52.6704516,46.4263226 51.2777634,47.8190108 49.5659355,47.8190108 C47.8541075,47.8190108 46.4612473,46.4263226 46.4612473,44.7144946 C46.4612473,43.0026667 47.8541075,41.6099785 49.5659355,41.6099785 C50.2787097,41.6099785 50.8562581,41.0324301 50.8562581,40.3196559 C50.8562581,39.6068817 50.2787097,39.0293333 49.5659355,39.0293333 C46.4309677,39.0293333 43.8806022,41.5796989 43.8806022,44.7144946 C43.8806022,47.8492903 46.4309677,50.3996559 49.5659355,50.3996559 C52.7007312,50.3996559 55.2510968,47.8492903 55.2510968,44.7144946 C55.2510968,44.0018925 54.6735484,43.424172 53.9607742,43.424172 Z"></path>
                                <path d="M10.916129,38.1534624 C14.0892903,38.1534624 16.6709677,35.5717849 16.6709677,32.3984516 C16.6709677,29.2252903 14.0892903,26.6436129 10.916129,26.6436129 C7.74296774,26.6436129 5.16129032,29.2251183 5.16129032,32.3982796 C5.16129032,35.5717849 7.74296774,38.1534624 10.916129,38.1534624 Z M10.916129,29.224086 C12.6664946,29.224086 14.0903226,30.647914 14.0903226,32.3982796 C14.0903226,34.1486452 12.6664946,35.5726452 10.916129,35.5726452 C9.16576344,35.5726452 7.74193548,34.1486452 7.74193548,32.3982796 C7.74193548,30.647914 9.16576344,29.224086 10.916129,29.224086 Z"></path>
                            </g>
                        </g>
                    </g>
                </g>
            </g>
        </g>
    </g>
</svg>