<?xml version="1.0" encoding="UTF-8"?>
<svg width="222px" height="222px" viewBox="0 0 222 222" version="1.1" xmlns="http://www.w3.org/2000/svg" xmlns:xlink="http://www.w3.org/1999/xlink">
    <!-- Generator: Sketch 47.1 (45422) - http://www.bohemiancoding.com/sketch -->
    <title>Group 7</title>
    <desc>Created with Sketch.</desc>
    <defs>
        <circle id="path-1" cx="110" cy="110" r="95"></circle>
    </defs>
    <g id="Welcome" stroke="none" stroke-width="1" fill="none" fill-rule="evenodd">
        <g id="Main-page" transform="translate(-423.000000, -25239.000000)">
            <g id="Bounty-programm" transform="translate(352.000000, 24805.000000)">
                <g id="Group-15" transform="translate(0.000000, 435.000000)">
                    <g id="Links">
                        <g id="Group-7" transform="translate(72.000000, 0.000000)">
                            <circle id="Oval" stroke="#3E4B5E" stroke-width="2" cx="110" cy="110" r="110"></circle>
                            <mask id="mask-2" fill="white">
                                <use xlink:href="#path-1"></use>
                            </mask>
                            <use id="Mask" fill="#3E4B5E" xlink:href="#path-1"></use>
                            <g id="bitcoin-logo" mask="url(#mask-2)" fill-rule="nonzero" fill="#FFFFFF">
                                <g transform="translate(81.000000, 70.000000)" id="Shape">
                                    <path d="M55.5298615,41.969786 C53.6712996,39.5664703 50.8667016,37.9157063 47.1162359,37.0185044 C51.8922196,34.5823519 53.9910793,30.4476117 53.4148359,24.61361 C53.2221935,22.4980793 52.6375303,20.6646081 51.6594994,19.1105021 C50.6807949,17.5560593 49.3600827,16.3064093 47.6923109,15.3610467 C46.0258863,14.4145054 44.2134643,13.6939486 42.2592548,13.197187 C40.3045401,12.7004254 38.0603565,12.339726 35.5282196,12.1155939 L35.5282196,0 L28.1249566,0 L28.1249566,11.7789748 C26.8429749,11.7789748 24.8879234,11.8109696 22.2599705,11.8751276 L22.2599705,0 L14.8556971,0 L14.8556971,12.1155939 C13.7976791,12.1477571 12.2434048,12.1640913 10.1922004,12.1640913 L0,12.1155939 L0,20.0004631 L5.33622971,20.0004631 C7.77221377,20.0004631 9.19850887,21.0904759 9.61511502,23.2696594 L9.61511502,37.0681805 C9.93607352,37.0681805 10.1922004,37.0846831 10.3846745,37.1166779 L9.61511502,37.1166779 L9.61511502,56.4430608 C9.35898812,58.0773222 8.42962299,58.8952107 6.82685123,58.8952107 L1.49095831,58.8952107 L0.00033678751,67.693616 L9.61595699,67.693616 C10.2250372,67.693616 11.1059049,67.7016989 12.2602441,67.7161807 C13.4139097,67.7323465 14.2789485,67.7404294 14.8560339,67.7404294 L14.8560339,80 L22.261486,80 L22.261486,67.8845745 C23.6072889,67.9174113 25.5623404,67.9330719 28.1264721,67.9330719 L28.1264721,80 L35.5299036,80 L35.5299036,67.7404294 C38.1586985,67.6124502 40.4902784,67.3733311 42.5246434,67.0195358 C44.5600187,66.6657405 46.5076609,66.1137458 48.3662227,65.3600153 C50.2246162,64.6072952 51.7788906,63.6691736 53.028709,62.5473344 C54.2792011,61.4265056 55.31196,59.9995369 56.1306904,58.2684491 C56.9467265,56.5373613 57.468242,54.5341492 57.6918689,52.2579708 C58.1103274,47.803956 57.3887601,44.374112 55.5298615,41.969786 Z M22.4039471,20.5278723 C22.628416,20.5278723 23.2614082,20.5197894 24.3030919,20.5036236 C25.3452809,20.487121 26.2103196,20.471292 26.8993868,20.4551262 C27.5886225,20.4392972 28.518156,20.4793749 29.6884926,20.5755278 C30.858324,20.6716806 31.8437643,20.800165 32.6448134,20.9601391 C33.4458625,21.1201132 34.3280773,21.3846597 35.2887637,21.7532737 C36.251134,22.1215508 37.0198515,22.5704886 37.5960949,23.099245 C38.1735171,23.6280014 38.6621958,24.301408 39.062131,25.1187913 C39.4632449,25.9360062 39.6636335,26.8734542 39.6636335,27.930967 C39.6636335,28.8285057 39.5196568,29.6460574 39.2315351,30.383622 C38.9439186,31.1206815 38.5101363,31.7378446 37.9338928,32.2346062 C37.357481,32.7315362 36.7633878,33.1646449 36.1543076,33.532922 C35.545901,33.9011992 34.7679218,34.197909 33.8227277,34.4220411 C32.8777019,34.6465099 32.0524041,34.8228182 31.3476763,34.9507974 C30.6424432,35.0791135 29.7612387,35.1675202 28.7033891,35.215344 C27.6453712,35.2631679 26.8438169,35.2958363 26.2992315,35.3116653 C25.7541409,35.3274943 25.0091669,35.3274943 24.0632992,35.3116653 C23.1172631,35.2958363 22.5651,35.2874166 22.4044523,35.2874166 L22.4044523,20.5277039 L22.4039471,20.5277039 L22.4039471,20.5278723 Z M42.6213014,53.268165 C42.3160035,54.0057296 41.9239828,54.6471414 41.4435555,55.1924004 C40.9622861,55.7363122 40.3289572,56.2175816 39.5440739,56.6336825 C38.759359,57.0509623 37.9973773,57.3869078 37.260823,57.6433715 C36.5232583,57.9008455 35.6334657,58.1239673 34.5927923,58.3169465 C33.5497614,58.5094206 32.6368989,58.6448092 31.8508368,58.7254698 C31.0659535,58.8057936 30.1288423,58.8696148 29.0386611,58.9181122 C27.9493219,58.9652625 27.0994386,58.9896796 26.4906952,58.9896796 C25.881615,58.9896796 25.1122239,58.9809231 24.1826904,58.9652625 C23.2526517,58.9502754 22.6602424,58.9421925 22.4036104,58.9421925 L22.4036104,42.6913532 C22.6597373,42.6913532 23.4210454,42.6756926 24.6873665,42.6430242 C25.9538559,42.6106926 26.9869516,42.5957055 27.7883375,42.5957055 C28.589555,42.5957055 29.6957335,42.6430242 31.1065364,42.7398506 C32.5159921,42.8353299 33.7019894,42.9789697 34.6643597,43.1712754 C35.6255512,43.3639178 36.6744759,43.6599541 37.8131545,44.061068 C38.9506543,44.4615083 39.8726101,44.950187 40.5780116,45.527104 C41.2832446,46.1050314 41.8758222,46.8410805 42.356418,47.7387876 C42.8381925,48.6359895 43.0784904,49.6618443 43.0784904,50.8160151 C43.078322,51.7143958 42.9262625,52.5304319 42.6213014,53.268165 Z"></path>
                                </g>
                            </g>
                        </g>
                    </g>
                </g>
            </g>
        </g>
    </g>
</svg>