<?xml version="1.0" encoding="utf-8"?>
<!DOCTYPE svg PUBLIC "-//W3C//DTD SVG 1.1//EN" "http://www.w3.org/Graphics/SVG/1.1/DTD/svg11.dtd">
<svg version="1.1" id="Layer_1" xmlns="http://www.w3.org/2000/svg" xmlns:xlink="http://www.w3.org/1999/xlink" x="0px" y="0px"
	 width="89px" height="89px" viewBox="0 0 89 89" enable-background="new 0 0 89 89" xml:space="preserve">
<g id="Layer_1_1_">
	<g>
		<path fill="#FFFFFF" d="M44.5,88.5c-24.262,0-44-19.738-44-44c0-24.262,19.738-44,44-44c24.262,0,44,19.738,44,44
			C88.5,68.762,68.762,88.5,44.5,88.5z"/>
		<path fill="#3C4A5F" d="M44.5,1C68.486,1,88,20.514,88,44.5C88,68.486,68.486,88,44.5,88C20.514,88,1,68.486,1,44.5
			C1,20.514,20.514,1,44.5,1 M44.5,0C19.923,0,0,19.924,0,44.5C0,69.077,19.923,89,44.5,89S89,69.077,89,44.5
			C89,19.924,69.077,0,44.5,0L44.5,0z"/>
	</g>
	<circle fill="#3C4A5F" cx="44.5" cy="44.5" r="32.5"/>
</g>
<g id="Layer_2">
</g>
</svg>
