<?xml version="1.0" encoding="UTF-8"?>
<svg width="222px" height="222px" viewBox="0 0 222 222" version="1.1" xmlns="http://www.w3.org/2000/svg" xmlns:xlink="http://www.w3.org/1999/xlink">
    <!-- Generator: Sketch 47.1 (45422) - http://www.bohemiancoding.com/sketch -->
    <title>Group 7</title>
    <desc>Created with Sketch.</desc>
    <defs>
        <circle id="path-1" cx="110" cy="110" r="95"></circle>
    </defs>
    <g id="Welcome" stroke="none" stroke-width="1" fill="none" fill-rule="evenodd">
        <g id="Main-page" transform="translate(-423.000000, -25688.000000)">
            <g id="Bounty-programm" transform="translate(352.000000, 24805.000000)">
                <g id="Group-23" transform="translate(30.000000, 884.000000)">
                    <g id="Group-15">
                        <g id="Links">
                            <g id="Group-7" transform="translate(42.000000, 0.000000)">
                                <circle id="Oval" stroke="#3E4B5E" stroke-width="2" cx="110" cy="110" r="110"></circle>
                                <mask id="mask-2" fill="white">
                                    <use xlink:href="#path-1"></use>
                                </mask>
                                <use id="Mask" fill="#3E4B5E" xlink:href="#path-1"></use>
                                <g id="facebook-logo" mask="url(#mask-2)" fill-rule="nonzero" fill="#FFFFFF">
                                    <g transform="translate(87.000000, 70.000000)" id="Shape">
                                        <path d="M41.2470103,0.0164948454 L30.9665979,0 C19.4169072,0 11.9529897,7.65773196 11.9529897,19.5101031 L11.9529897,28.505567 L1.61649485,28.505567 C0.723298969,28.505567 0,29.2296907 0,30.1228866 L0,43.1562887 C0,44.0494845 0.724123711,44.7727835 1.61649485,44.7727835 L11.9529897,44.7727835 L11.9529897,77.6602062 C11.9529897,78.5534021 12.6762887,79.276701 13.5694845,79.276701 L27.0556701,79.276701 C27.948866,79.276701 28.6721649,78.5525773 28.6721649,77.6602062 L28.6721649,44.7727835 L40.7579381,44.7727835 C41.651134,44.7727835 42.374433,44.0494845 42.374433,43.1562887 L42.3793814,30.1228866 C42.3793814,29.6940206 42.2086598,29.283299 41.9059794,28.9797938 C41.603299,28.6762887 41.1909278,28.505567 40.7620619,28.505567 L28.6721649,28.505567 L28.6721649,20.88 C28.6721649,17.2148454 29.545567,15.3542268 34.32,15.3542268 L41.2453608,15.3517526 C42.137732,15.3517526 42.8610309,14.6276289 42.8610309,13.7352577 L42.8610309,1.63298969 C42.8610309,0.741443299 42.1385567,0.0181443299 41.2470103,0.0164948454 Z"></path>
                                    </g>
                                </g>
                            </g>
                        </g>
                    </g>
                </g>
            </g>
        </g>
    </g>
</svg>