<?xml version="1.0" encoding="utf-8"?>
<!-- Generator: Adobe Illustrator 16.0.0, SVG Export Plug-In . SVG Version: 6.00 Build 0)  -->
<!DOCTYPE svg PUBLIC "-//W3C//DTD SVG 1.1//EN" "http://www.w3.org/Graphics/SVG/1.1/DTD/svg11.dtd">
<svg version="1.1" id="Layer_1" xmlns="http://www.w3.org/2000/svg" xmlns:xlink="http://www.w3.org/1999/xlink" x="0px" y="0px"
	 width="20px" height="40px" viewBox="0 0 20 40" enable-background="new 0 0 20 40" xml:space="preserve">
<title>Shape</title>
<desc>Created with Sketch.</desc>
<g id="Welcome">
	<g id="Back-office.-Buy-tokens.-Choose-payment-method" transform="translate(-822.000000, -933.000000)">
		<g id="Payment-method" transform="translate(375.000000, 510.000000)">
			<g id="bitcoin-cash" transform="translate(425.000000, 407.000000)">
				<path id="Shape" fill="#888C92" d="M38.295,23.855c-0.59-0.345-1.313-0.453-2.171-0.324c0.79-0.911,0.879-1.95,0.268-3.119
					c-0.219-0.425-0.496-0.758-0.83-1c-0.336-0.242-0.716-0.391-1.144-0.448c-0.427-0.057-0.866-0.055-1.315,0.006
					s-0.947,0.175-1.494,0.342l-1.021-2.528l-1.543,0.624l0.993,2.457c-0.267,0.108-0.672,0.279-1.215,0.514l-1.001-2.477
					l-1.544,0.624l1.021,2.527c-0.218,0.096-0.541,0.23-0.968,0.403l-2.129,0.848l0.665,1.645l1.113-0.45
					c0.508-0.205,0.897-0.098,1.167,0.322l1.163,2.879c0.067-0.027,0.122-0.045,0.165-0.055l-0.16,0.064l1.629,4.031
					c0.084,0.363-0.041,0.611-0.375,0.746l-1.112,0.451l0.431,1.961l2.004-0.811c0.127-0.051,0.312-0.125,0.554-0.219
					s0.423-0.164,0.543-0.213l1.033,2.557l1.544-0.623l-1.021-2.527c0.283-0.107,0.693-0.268,1.228-0.484l1.017,2.518l1.544-0.623
					l-1.033-2.559c0.538-0.248,1.003-0.494,1.397-0.74c0.395-0.244,0.754-0.523,1.078-0.838c0.324-0.313,0.569-0.641,0.735-0.979
					c0.167-0.34,0.261-0.725,0.286-1.154c0.024-0.43-0.035-0.893-0.182-1.386C39.325,24.855,38.886,24.2,38.295,23.855z
					 M29.581,22.173c0.047-0.019,0.178-0.074,0.394-0.165s0.395-0.167,0.537-0.229c0.143-0.061,0.34-0.131,0.592-0.209
					s0.469-0.135,0.649-0.169s0.387-0.053,0.618-0.057c0.231-0.004,0.429,0.024,0.595,0.086c0.164,0.062,0.322,0.161,0.475,0.298
					c0.153,0.137,0.273,0.315,0.363,0.536c0.075,0.188,0.114,0.37,0.116,0.548c0.003,0.178-0.036,0.343-0.114,0.495
					c-0.078,0.152-0.166,0.293-0.262,0.421s-0.232,0.255-0.411,0.382s-0.335,0.233-0.472,0.319
					c-0.136,0.086-0.313,0.179-0.528,0.278c-0.217,0.099-0.382,0.174-0.493,0.223c-0.112,0.049-0.269,0.112-0.467,0.188
					c-0.198,0.077-0.314,0.121-0.348,0.135L29.581,22.173L29.581,22.173L29.581,22.173z M36.556,27.299
					c-0.002,0.18-0.029,0.348-0.084,0.502c-0.054,0.154-0.146,0.307-0.273,0.461c-0.129,0.152-0.26,0.287-0.392,0.402
					s-0.299,0.236-0.499,0.365c-0.201,0.129-0.381,0.232-0.537,0.316c-0.157,0.082-0.348,0.176-0.57,0.277
					c-0.224,0.102-0.398,0.178-0.525,0.229c-0.127,0.053-0.289,0.115-0.483,0.189c-0.195,0.076-0.319,0.123-0.373,0.146
					l-1.369-3.391c0.053-0.021,0.211-0.09,0.472-0.203c0.262-0.113,0.476-0.203,0.643-0.271c0.167-0.066,0.402-0.15,0.704-0.248
					c0.302-0.1,0.562-0.169,0.778-0.21s0.46-0.067,0.731-0.08c0.271-0.012,0.505,0.012,0.7,0.073
					c0.195,0.062,0.381,0.165,0.557,0.311c0.176,0.147,0.313,0.341,0.41,0.582C36.521,26.938,36.558,27.119,36.556,27.299z"/>
			</g>
		</g>
	</g>
</g>
<g id="Welcome_1_">
	<g id="Back-office.-Buy-tokens.-Choose-payment-method_1_" transform="translate(-822.000000, -933.000000)">
		<g id="Payment-method_1_" transform="translate(375.000000, 510.000000)">
			<g id="bitcoin-cash_1_" transform="translate(425.000000, 407.000000)">
				<path id="Shape_1_" fill="#FFFFFF" d="M38.295,43.855c-0.59-0.345-1.313-0.453-2.171-0.324c0.79-0.91,0.879-1.949,0.268-3.119
					c-0.219-0.424-0.496-0.758-0.83-1c-0.336-0.241-0.716-0.391-1.144-0.447c-0.427-0.057-0.866-0.055-1.315,0.006
					s-0.947,0.176-1.494,0.342l-1.021-2.527l-1.543,0.623l0.993,2.457c-0.267,0.108-0.672,0.279-1.215,0.515l-1.001-2.478
					l-1.544,0.624l1.021,2.527c-0.218,0.097-0.541,0.23-0.968,0.403l-2.129,0.848l0.665,1.646l1.113-0.45
					c0.508-0.205,0.897-0.098,1.167,0.322l1.163,2.879c0.067-0.027,0.122-0.045,0.165-0.055l-0.16,0.064l1.629,4.031
					c0.084,0.363-0.041,0.611-0.375,0.746l-1.112,0.451l0.431,1.961l2.004-0.811c0.127-0.051,0.312-0.125,0.554-0.219
					s0.423-0.164,0.543-0.213l1.033,2.557l1.544-0.623l-1.021-2.527c0.283-0.107,0.693-0.268,1.228-0.484l1.017,2.518l1.544-0.623
					l-1.033-2.559c0.538-0.248,1.003-0.494,1.397-0.74c0.395-0.244,0.754-0.523,1.078-0.838c0.324-0.313,0.569-0.641,0.735-0.979
					c0.167-0.34,0.261-0.725,0.286-1.154c0.024-0.43-0.035-0.893-0.182-1.386C39.325,44.855,38.886,44.2,38.295,43.855z
					 M29.581,42.173c0.047-0.019,0.178-0.073,0.394-0.165s0.395-0.168,0.537-0.229c0.143-0.062,0.34-0.131,0.592-0.21
					s0.469-0.135,0.649-0.169s0.387-0.053,0.618-0.057c0.231-0.005,0.429,0.023,0.595,0.086c0.164,0.062,0.322,0.16,0.475,0.297
					c0.153,0.137,0.273,0.316,0.363,0.537c0.075,0.188,0.114,0.369,0.116,0.548c0.003,0.178-0.036,0.343-0.114,0.495
					s-0.166,0.293-0.262,0.421s-0.232,0.255-0.411,0.382s-0.335,0.232-0.472,0.318c-0.136,0.087-0.313,0.18-0.528,0.278
					c-0.217,0.099-0.382,0.174-0.493,0.223c-0.112,0.05-0.269,0.112-0.467,0.188s-0.314,0.121-0.348,0.135L29.581,42.173
					L29.581,42.173L29.581,42.173z M36.556,47.299c-0.002,0.18-0.029,0.348-0.084,0.502c-0.054,0.154-0.146,0.307-0.273,0.461
					c-0.129,0.152-0.26,0.287-0.392,0.402s-0.299,0.236-0.499,0.365c-0.201,0.129-0.381,0.232-0.537,0.316
					c-0.157,0.082-0.348,0.176-0.57,0.277c-0.224,0.102-0.398,0.178-0.525,0.229c-0.127,0.053-0.289,0.115-0.483,0.189
					c-0.195,0.076-0.319,0.123-0.373,0.146l-1.369-3.391c0.053-0.021,0.211-0.09,0.472-0.203c0.262-0.113,0.476-0.203,0.643-0.271
					c0.167-0.066,0.402-0.15,0.704-0.248c0.302-0.1,0.562-0.17,0.778-0.211s0.46-0.066,0.731-0.079
					c0.271-0.013,0.505,0.013,0.7,0.073s0.381,0.164,0.557,0.311c0.176,0.147,0.313,0.341,0.41,0.582
					C36.521,46.938,36.558,47.119,36.556,47.299z"/>
			</g>
		</g>
	</g>
</g>
</svg>
