<?xml version="1.0" encoding="utf-8"?>
<!-- Generator: Adobe Illustrator 16.0.0, SVG Export Plug-In . SVG Version: 6.00 Build 0)  -->
<!DOCTYPE svg PUBLIC "-//W3C//DTD SVG 1.1//EN" "http://www.w3.org/Graphics/SVG/1.1/DTD/svg11.dtd">
<svg version="1.1" id="Layer_1" xmlns="http://www.w3.org/2000/svg" xmlns:xlink="http://www.w3.org/1999/xlink" x="0px" y="0px"
	 width="360px" height="60px" viewBox="0 0 360 60" enable-background="new 0 0 360 60" xml:space="preserve">
<title>screen 3</title>
<desc>Created with Sketch.</desc>
<g id="Welcome">
	<g id="Main-page" transform="translate(-930.000000, -6836.000000)">
		<g id="_x30_51-search" transform="translate(930.000000, 6836.000000)">
			<path id="Shape" fill="#FFFFFF" d="M10.371,26.268c-0.461-0.514-1.252-0.555-1.765-0.094c-0.513,0.462-0.555,1.252-0.094,1.766
				c0.163,0.181,0.333,0.359,0.506,0.533c0.244,0.244,0.564,0.366,0.884,0.366c0.32,0,0.64-0.122,0.883-0.366
				c0.488-0.488,0.488-1.279,0-1.768C10.644,26.563,10.504,26.416,10.371,26.268z"/>
			<path id="Shape_1_" fill="#FFFFFF" d="M9.018,9.027c-2.014,2.014-3.336,4.557-3.823,7.354c-0.476,2.733-0.126,5.51,1.011,8.028
				c0.208,0.462,0.664,0.735,1.14,0.735c0.172,0,0.346-0.035,0.513-0.11c0.629-0.284,0.909-1.024,0.625-1.653
				c-1.913-4.239-0.988-9.296,2.301-12.586c0.488-0.488,0.488-1.279,0-1.768C10.298,8.539,9.507,8.539,9.018,9.027z"/>
			<path id="Shape_2_" fill="#FFFFFF" d="M31.277,13.091c-0.285-0.629-1.025-0.909-1.654-0.625
				c-0.629,0.284-0.909,1.024-0.625,1.653c1.913,4.239,0.988,9.297-2.301,12.586c-0.488,0.488-0.488,1.279,0,1.768
				c0.244,0.244,0.564,0.366,0.884,0.366c0.32,0,0.64-0.122,0.884-0.366c2.014-2.014,3.336-4.557,3.823-7.354
				C32.762,18.386,32.414,15.61,31.277,13.091z"/>
			<path id="Shape_3_" fill="#FFFFFF" d="M27.111,11.232c0.247,0.274,0.587,0.414,0.93,0.414c0.298,0,0.597-0.105,0.835-0.32
				c0.513-0.461,0.555-1.252,0.094-1.765c-0.165-0.183-0.335-0.363-0.506-0.534c-0.489-0.488-1.28-0.487-1.768,0.001
				c-0.488,0.489-0.487,1.28,0.001,1.768C26.837,10.936,26.976,11.083,27.111,11.232z"/>
			<path id="Shape_4_" fill="#FFFFFF" d="M59.26,52.198L43.499,36.437c-0.001-0.001-0.001-0.002-0.003-0.003
				c0,0-0.002-0.001-0.002-0.002l-3.357-3.357c-0.471-0.471-1.099-0.73-1.768-0.73c-0.221,0-0.437,0.031-0.645,0.086l-3.34-3.34
				C39.197,21.813,38.402,11.895,32,5.492C28.458,1.95,23.749,0,18.741,0S9.024,1.95,5.483,5.492
				c-7.311,7.311-7.311,19.206,0,26.516c3.541,3.542,8.25,5.492,13.258,5.492c3.734,0,7.301-1.085,10.343-3.104l3.338,3.337
				c-0.056,0.209-0.086,0.424-0.086,0.645c0,0.67,0.259,1.297,0.73,1.769l3.357,3.357c0,0.001,0.001,0.001,0.002,0.003
				c0,0,0.002,0.001,0.002,0.002L52.189,59.27c0.472,0.471,1.1,0.73,1.768,0.73c0.669,0,1.297-0.26,1.768-0.73l3.536-3.536
				c0.472-0.472,0.731-1.099,0.731-1.769C59.992,53.297,59.732,52.669,59.26,52.198z M30.219,30.253
				C27.151,33.314,23.076,35,18.741,35c-4.34,0-8.421-1.69-11.49-4.76c-6.336-6.336-6.336-16.645,0-22.98
				c3.069-3.069,7.15-4.76,11.49-4.76s8.421,1.69,11.491,4.76c6.332,6.331,6.336,16.631,0.012,22.969L30.219,30.253z M31.115,32.893
				l0.869-0.869c0.006-0.006,0.01-0.01,0.016-0.016c0.004-0.004,0.01-0.01,0.014-0.014l0.869-0.87l2.835,2.835l-1.768,1.768
				L31.115,32.893z M34.834,38.378l3.535-3.535l2.476,2.476l-3.535,3.535L34.834,38.378z M53.961,57.5c0,0-0.002,0-0.004,0v0.002
				L39.078,42.621l3.535-3.535l14.88,14.88L53.961,57.5z"/>
		</g>
	</g>
</g>
<g id="Welcome_1_">
	<g id="Main-page_1_" transform="translate(-1050.000000, -6836.000000)">
		<g id="_x30_51-support" transform="translate(1050.000000, 6836.000000)">
			<path id="Shape_9_" fill="#FFFFFF" d="M75.029,39.453c-0.526-0.444-1.313-0.378-1.758,0.148
				c-0.171,0.203-0.341,0.411-0.505,0.619c-0.425,0.542-0.331,1.326,0.211,1.752c0.229,0.18,0.5,0.266,0.77,0.266
				c0.37,0,0.736-0.163,0.982-0.477c0.145-0.185,0.296-0.369,0.448-0.55C75.621,40.686,75.555,39.898,75.029,39.453z"/>
			<path id="Shape_8_" fill="#FFFFFF" d="M98.047,15.004c0.236,0.207,0.529,0.309,0.82,0.309c0.348,0,0.693-0.145,0.939-0.427
				c0.172-0.196,0.329-0.393,0.467-0.585c0.402-0.559,0.276-1.338-0.283-1.741c-0.559-0.403-1.339-0.276-1.741,0.283
				c-0.093,0.129-0.2,0.264-0.321,0.401C97.475,13.763,97.528,14.551,98.047,15.004z"/>
			<path id="Shape_7_" fill="#FFFFFF" d="M118.636,52.455h-1.901c-0.212-4.59-1.59-9.037-4.021-12.932
				c-2.364-3.789-5.634-6.924-9.499-9.129c0.16-0.422,0.311-0.891,0.455-1.417h2.571c2.341,0,4.243-1.903,4.243-4.243v-3.932
				c0-2.34-1.902-4.244-4.243-4.244h-0.442c0.108-1.695,0.049-3.327-0.344-4.639c-1.082-3.622-3.135-6.645-5.937-8.741
				c-2.729-2.042-6.042-3.121-9.577-3.121s-6.847,1.079-9.577,3.122c-2.802,2.096-4.855,5.118-5.938,8.74
				c-0.392,1.312-0.451,2.944-0.343,4.639h-0.442c-2.34,0-4.244,1.904-4.244,4.244v3.932c0,2.34,1.903,4.244,4.244,4.244h2.572
				c0.144,0.525,0.294,0.994,0.455,1.416c-3.865,2.205-7.134,5.34-9.499,9.129c-2.43,3.896-3.809,8.342-4.021,12.933h-1.9
				c-0.689,0-1.248,0.559-1.248,1.247c0,0.689,0.559,1.248,1.248,1.248h3.119h8.179l1.23,4.102c0.159,0.527,0.644,0.889,1.195,0.889
				h24.552c0.002,0,0.004,0,0.006,0c0.003,0,0.006,0,0.009,0h5.374c0.551,0,1.037-0.361,1.195-0.889l1.23-4.102h8.179h3.119
				c0.688,0,1.247-0.559,1.247-1.248C119.883,53.015,119.324,52.455,118.636,52.455z M104.534,24.775
				c0.065-0.398,0.165-0.914,0.278-1.51c0.236-1.229,0.518-2.695,0.727-4.211h0.703l0,0c0.963,0,1.748,0.784,1.748,1.749v3.932
				c0,0.964-0.785,1.748-1.748,1.748h-2.01C104.334,25.955,104.434,25.389,104.534,24.775z M73.642,26.482L73.642,26.482
				c-0.964,0-1.749-0.784-1.749-1.748v-3.932c0-0.964,0.784-1.749,1.749-1.749h0.702c0.21,1.516,0.491,2.981,0.726,4.209
				c0.115,0.597,0.213,1.112,0.279,1.511c0.101,0.614,0.201,1.181,0.301,1.708H73.642z M76.575,16.405
				c-0.094-1.433-0.055-2.773,0.243-3.771c1.857-6.218,6.886-10.081,13.123-10.081c6.238,0,11.266,3.863,13.123,10.081
				c0.374,1.25,0.342,3.04,0.148,4.875c-0.023,0.095-0.037,0.195-0.037,0.297c0,0.009,0.001,0.018,0.001,0.027
				c-0.206,1.791-0.552,3.596-0.814,4.961c-0.118,0.613-0.22,1.144-0.29,1.574c-0.174,1.057-0.337,1.948-0.501,2.711
				c-1.841,1.672-4.972,2.816-8.151,3.088c-0.09-0.601-0.607-1.062-1.232-1.062h-2.246c-0.689,0-1.248,0.56-1.248,1.248v0.998
				c0,0.013,0.001,0.026,0.002,0.04c0.001,0.024,0.002,0.049,0.004,0.074c0.001,0.018,0.004,0.034,0.007,0.051
				c0.003,0.024,0.006,0.048,0.011,0.071c0.003,0.019,0.008,0.036,0.013,0.056c0.005,0.021,0.01,0.041,0.016,0.062
				c0.006,0.021,0.013,0.04,0.02,0.06c0.006,0.018,0.013,0.036,0.02,0.055c0.008,0.02,0.018,0.039,0.027,0.059
				c0.008,0.018,0.015,0.033,0.023,0.05c0.01,0.019,0.021,0.038,0.033,0.057c0.009,0.017,0.018,0.032,0.028,0.048
				c0.012,0.018,0.024,0.034,0.037,0.051c0.011,0.016,0.022,0.031,0.034,0.047c0.013,0.016,0.025,0.029,0.039,0.045
				c0.014,0.016,0.027,0.03,0.042,0.045c0.013,0.014,0.026,0.026,0.04,0.039c0.016,0.016,0.032,0.029,0.048,0.044
				c0.013,0.011,0.027,0.022,0.042,0.033c0.018,0.014,0.035,0.027,0.054,0.04c0.015,0.01,0.03,0.02,0.045,0.029
				c0.019,0.012,0.038,0.023,0.057,0.034c0.017,0.009,0.034,0.018,0.051,0.026c0.019,0.01,0.038,0.019,0.057,0.027
				c0.02,0.008,0.039,0.016,0.059,0.023c0.018,0.007,0.036,0.014,0.054,0.02c0.022,0.008,0.045,0.014,0.068,0.02
				c0.017,0.004,0.034,0.01,0.051,0.014c0.023,0.005,0.048,0.009,0.072,0.013c0.014,0.002,0.026,0.005,0.04,0.007
				c0.008,0.001,0.016,0.002,0.023,0.002c0.003,0.001,0.006,0.002,0.009,0.002c0.711,0.088,1.436,0.131,2.166,0.131
				c2.815,0,5.699-0.637,8.078-1.743c-0.595,0.741-1.367,1.233-2.479,1.94c-0.464,0.295-0.989,0.629-1.574,1.025
				c-2.014,1.156-4.055,1.742-6.067,1.742c-2.011,0-4.052-0.586-6.066-1.742c-0.584-0.395-1.11-0.729-1.574-1.024
				c-2.215-1.409-3.085-1.963-3.877-5.343c-0.011-0.088-0.03-0.172-0.058-0.252c-0.183-0.814-0.363-1.785-0.556-2.959
				c-0.071-0.431-0.173-0.961-0.291-1.575c-0.21-1.097-0.475-2.477-0.678-3.905c2.291-0.32,7.202-1.149,10.51-2.736l0.819,1.965
				c0.084,0.201,0.153,0.378,0.214,0.532c0.275,0.702,0.536,1.365,1.316,1.627c0.187,0.063,0.367,0.091,0.55,0.091
				c0.436,0,0.896-0.157,1.535-0.375c0.175-0.06,0.373-0.127,0.596-0.201c0.865-0.286,2.602-1.146,4.246-2.24
				c0.574-0.382,0.73-1.156,0.348-1.73c-0.381-0.574-1.155-0.729-1.729-0.348c-1.535,1.02-3.057,1.753-3.646,1.948
				c-0.233,0.077-0.439,0.147-0.621,0.209c-0.092,0.031-0.186,0.063-0.277,0.094c-0.064-0.165-0.139-0.354-0.228-0.567l-1.355-3.251
				c-0.143-0.342-0.43-0.603-0.784-0.712c-0.354-0.109-0.739-0.055-1.049,0.147C84.589,15.103,79.054,16.053,76.575,16.405z
				 M105.219,53.33c0,0.002,0,0.004-0.001,0.005l-1.233,4.111h-2.83l0.52-1.938c0.178-0.666-0.217-1.35-0.883-1.528
				s-1.35,0.217-1.527,0.882l-0.692,2.584H75.9l-1.231-4.102c-0.002-0.007-0.003-0.013-0.005-0.02l-1.758-5.859h2.75l0.692,2.585
				c0.149,0.558,0.653,0.925,1.205,0.925c0.106,0,0.215-0.014,0.323-0.043c0.666-0.178,1.061-0.862,0.882-1.527l-0.52-1.939h28.741
				L105.219,53.33z M108.086,52.455l1.765-5.879c0.113-0.377,0.041-0.787-0.194-1.104s-0.606-0.502-1.001-0.502H71.229
				c-0.395,0-0.766,0.186-1.001,0.502c-0.236,0.316-0.308,0.727-0.194,1.104l1.764,5.879h-6.152
				c0.419-8.304,5.002-15.753,12.236-19.881c0.54,0.663,1.188,1.191,2.002,1.748c-1.216,0.632-2.376,1.379-3.448,2.225
				c-0.542,0.426-0.635,1.21-0.208,1.752c0.247,0.313,0.612,0.475,0.981,0.475c0.27,0,0.542-0.087,0.771-0.268
				c0.98-0.771,2.042-1.452,3.157-2.023l1.155-0.593c0.074,0.05,0.146,0.098,0.222,0.148l0.076,0.048
				c2.411,1.393,4.885,2.098,7.352,2.098c0,0,0,0,0,0c2.467,0,4.941-0.705,7.353-2.098l0.077-0.048
				c0.568-0.386,1.09-0.718,1.551-1.011c1.346-0.855,2.32-1.521,3.08-2.453c7.233,4.128,11.816,11.577,12.235,19.881H108.086
				L108.086,52.455z"/>
			<path id="Shape_6_" fill="#FFFFFF" d="M78.246,52.316c-0.666,0.179-1.061,0.863-0.882,1.529l0.146,0.543
				c0.149,0.557,0.653,0.924,1.205,0.924c0.107,0,0.215-0.014,0.324-0.043c0.666-0.178,1.06-0.862,0.882-1.527l-0.146-0.543
				C79.596,52.533,78.912,52.139,78.246,52.316z"/>
			<path id="Shape_5_" fill="#FFFFFF" d="M101.162,52.594c0.107,0.029,0.217,0.044,0.324,0.044c0.551,0,1.055-0.368,1.203-0.925
				l0.146-0.543c0.179-0.666-0.216-1.35-0.882-1.528c-0.665-0.179-1.349,0.216-1.528,0.882l-0.146,0.543
				C100.102,51.731,100.496,52.416,101.162,52.594z"/>
		</g>
	</g>
</g>
<g id="Welcome_2_">
	<g id="Main-page_2_" transform="translate(-1170.000000, -6846.000000)">
		<g id="_x30_51-delivery-truck" transform="translate(1170.000000, 6846.000000)">
			<path id="Shape_12_" fill="#FFFFFF" d="M173.75,25.106V23.75c0-2.067-1.682-3.75-3.75-3.75h-12.5v-6.25
				c0-0.69-0.56-1.25-1.25-1.25h-3.75V8.75c0-0.69-0.561-1.25-1.25-1.25h-16.981l-2.134-2.134c-0.488-0.488-1.28-0.488-1.768,0
				l-7.134,7.134h-1.982c-0.69,0-1.25,0.56-1.25,1.25v35c0,0.69,0.56,1.25,1.25,1.25h5.125c0.188,0.924,0.581,1.773,1.128,2.5H125
				c-0.69,0-1.25,0.561-1.25,1.25c0,0.69,0.56,1.25,1.25,1.25h7.5c0.003,0,0.006,0,0.009,0c3.014-0.005,5.535-2.153,6.115-5h17.626
				h5.127c0.188,0.924,0.58,1.773,1.127,2.5h-2.503c-0.69,0-1.25,0.561-1.25,1.25c0,0.69,0.56,1.25,1.25,1.25h7.499
				c0.004,0,0.007,0,0.01,0c3.014-0.004,5.535-2.153,6.115-5h5.125c0.69,0,1.25-0.56,1.25-1.25V37.5v-5
				C180,28.791,177.293,25.703,173.75,25.106z M150,10v2.5h-10.731l-2.5-2.5H150L150,10z M131.251,8.018l1.616,1.616
				c0,0,0.001,0.001,0.002,0.002l2.865,2.865h-8.965L131.251,8.018z M132.5,52.5c-2.068,0-3.75-1.682-3.75-3.75S130.432,45,132.5,45
				c2.067,0,3.75,1.682,3.75,3.75S134.568,52.5,132.5,52.5z M155,21.25V42.5h-8.501c-0.69,0-1.25,0.561-1.25,1.25
				c0,0.69,0.56,1.25,1.25,1.25H155v2.5h-16.376c-0.581-2.85-3.106-5-6.124-5s-5.544,2.15-6.125,5H122.5v-20h5
				c0.69,0,1.25-0.56,1.25-1.25S128.19,25,127.5,25h-5v-2.5h15c0.69,0,1.25-0.559,1.25-1.25c0-0.689-0.56-1.25-1.25-1.25h-15v-5
				h1.249c0.001,0,0.001,0,0.002,0H155V21.25z M161.377,47.5H157.5V45h5.004C161.957,45.728,161.565,46.577,161.377,47.5z
				 M171.25,48.754c-0.002,2.066-1.684,3.746-3.75,3.746s-3.75-1.682-3.75-3.75c0-2.064,1.678-3.744,3.741-3.75h0.009
				c0.002,0,0.002,0,0.004,0c2.064,0.002,3.744,1.682,3.746,3.746c0,0.002,0,0.002,0,0.004S171.25,48.753,171.25,48.754z
				 M177.5,47.5h-3.875c-0.581-2.85-3.105-5-6.125-5c-0.002,0-0.006,0-0.009,0H157.5v-20H170c0.689,0,1.25,0.561,1.25,1.25V25h-8.75
				c-0.689,0-1.25,0.561-1.25,1.25V37.5c0,0.69,0.561,1.25,1.25,1.25h15V47.5L177.5,47.5z M166.251,27.5v8.75h-2.501V27.5H166.251z
				 M177.5,36.25h-8.75V27.5h3.75c2.758,0,5,2.243,5,5V36.25z"/>
			<path id="Shape_11_" fill="#FFFFFF" d="M141.641,45h0.78c0.69,0,1.25-0.56,1.25-1.25s-0.56-1.25-1.25-1.25h-0.78
				c-0.69,0-1.25,0.56-1.25,1.25S140.95,45,141.641,45z"/>
			<path id="Shape_10_" fill="#FFFFFF" d="M141.641,22.5h0.78c0.69,0,1.25-0.56,1.25-1.25s-0.56-1.25-1.25-1.25h-0.78
				c-0.69,0-1.25,0.56-1.25,1.25S140.95,22.5,141.641,22.5z"/>
		</g>
	</g>
</g>
<g id="Welcome_3_">
	<g id="Main-page_3_" transform="translate(-1290.000000, -6836.000000)">
		<g id="_x30_51-shield" transform="translate(1290.000000, 6836.000000)">
			<path id="Shape_18_" fill="#FFFFFF" d="M233.498,10.625c-3.902,0-6.863-2.283-9.998-4.7C219.899,3.147,215.817,0,209.748,0
				s-10.151,3.147-13.753,5.925c-3.136,2.417-6.097,4.7-9.997,4.7c-0.69,0-1.25,0.56-1.25,1.25c0,14.595,1.816,24.313,5.893,31.511
				c4.049,7.147,10.073,11.592,18.482,16.446c0.193,0.112,0.408,0.168,0.625,0.168c0.215,0,0.432-0.056,0.625-0.168
				c8.408-4.854,14.434-9.299,18.48-16.446c4.076-7.197,5.895-16.916,5.895-31.511C234.748,11.185,234.188,10.625,233.498,10.625z
				 M209.748,57.305c-15.078-8.792-22.299-16.367-22.496-44.243c4.118-0.415,7.24-2.823,10.27-5.158
				c3.445-2.657,7.01-5.404,12.227-5.404s8.779,2.747,12.227,5.404c3.027,2.335,6.15,4.743,10.27,5.158
				C232.047,40.938,224.826,48.513,209.748,57.305z"/>
			<path id="Shape_17_" fill="#FFFFFF" d="M194.979,14.276c-0.322-0.611-1.078-0.845-1.688-0.523
				c-0.155,0.082-0.313,0.162-0.471,0.24c-0.62,0.305-0.874,1.055-0.569,1.674c0.217,0.442,0.66,0.698,1.122,0.698
				c0.186,0,0.374-0.042,0.552-0.129c0.178-0.088,0.355-0.179,0.531-0.271C195.066,15.643,195.3,14.887,194.979,14.276z"/>
			<path id="Shape_16_" fill="#FFFFFF" d="M227.981,24.078c0.039,0.004,0.076,0.005,0.115,0.005c0.639,0,1.184-0.487,1.242-1.137
				c0.016-0.159,0.029-0.319,0.043-0.479c0.057-0.688-0.453-1.293-1.141-1.352s-1.293,0.452-1.352,1.141
				c-0.014,0.154-0.025,0.31-0.041,0.464C226.785,23.407,227.293,24.016,227.981,24.078z"/>
			<path id="Shape_15_" fill="#FFFFFF" d="M197.449,13.843c0.254,0,0.51-0.077,0.73-0.237c0.725-0.523,1.43-1.06,2.111-1.579
				c3.19-2.43,5.946-4.527,9.457-4.527c0.689,0,1.25-0.56,1.25-1.25c0-0.69-0.561-1.25-1.25-1.25c-4.354,0-7.568,2.447-10.972,5.039
				c-0.669,0.51-1.362,1.037-2.06,1.542c-0.561,0.404-0.687,1.185-0.282,1.745C196.679,13.663,197.061,13.843,197.449,13.843z"/>
			<path id="Shape_14_" fill="#FFFFFF" d="M209.748,51.479c-3.199-1.972-7.063-4.62-9.961-8.035
				c-0.445-0.527-1.234-0.592-1.762-0.146c-0.526,0.446-0.591,1.235-0.145,1.762c3.328,3.925,7.744,6.847,11.219,8.954
				c0.006,0.004,0.013,0.006,0.02,0.01c0.029,0.018,0.061,0.032,0.092,0.047c0.02,0.01,0.039,0.021,0.061,0.029
				c0.027,0.011,0.057,0.02,0.085,0.029c0.024,0.008,0.048,0.018,0.072,0.023c0.026,0.008,0.053,0.012,0.079,0.017
				c0.027,0.005,0.053,0.012,0.08,0.015c0.038,0.006,0.076,0.007,0.114,0.008c0.015,0.001,0.029,0.004,0.044,0.004
				c0,0,0.001,0,0.002,0c0,0,0,0,0.001,0c0.015,0,0.029-0.003,0.044-0.004c0.038-0.001,0.076-0.002,0.114-0.008
				c0.026-0.003,0.053-0.01,0.079-0.015c0.027-0.005,0.054-0.009,0.08-0.017c0.024-0.006,0.048-0.016,0.072-0.023
				c0.028-0.009,0.057-0.018,0.086-0.029c0.02-0.009,0.039-0.02,0.06-0.029c0.031-0.014,0.063-0.029,0.093-0.047
				c0.006-0.004,0.012-0.006,0.019-0.01c3.476-2.107,7.89-5.029,11.22-8.954c3.795-4.477,6.188-10.534,7.313-18.521
				c0.096-0.684-0.379-1.315-1.063-1.412c-0.686-0.096-1.316,0.38-1.412,1.063c-1.059,7.503-3.266,13.147-6.746,17.253
				C216.811,46.858,212.948,49.507,209.748,51.479z"/>
			<path id="Shape_13_" fill="#FFFFFF" d="M217.815,15.638l-13.039,13.04l-3.095-3.094c-0.765-0.766-1.786-1.188-2.873-1.188
				s-2.108,0.422-2.874,1.188c-1.583,1.584-1.583,4.162,0.001,5.746l5.976,5.975l0.053,0.052c0.008,0.007,0.016,0.015,0.023,0.022
				l0.052,0.049c0.009,0.008,0.019,0.017,0.028,0.024l0.054,0.048c0.009,0.007,0.017,0.014,0.024,0.021l0.055,0.045
				c0.006,0.005,0.014,0.01,0.02,0.016l0.055,0.044c0.011,0.008,0.021,0.017,0.031,0.024l0.057,0.042
				c0.008,0.006,0.016,0.012,0.024,0.018l0.058,0.04c0.008,0.007,0.017,0.013,0.025,0.019l0.058,0.039
				c0.009,0.007,0.019,0.013,0.028,0.019l0.059,0.037c0.008,0.006,0.016,0.01,0.023,0.016l0.061,0.035
				c0.008,0.006,0.016,0.01,0.023,0.015l0.061,0.034c0.012,0.008,0.023,0.014,0.035,0.02l0.061,0.033
				c0.006,0.003,0.013,0.007,0.02,0.01l0.062,0.031c0.011,0.006,0.021,0.012,0.032,0.017l0.063,0.029
				c0.009,0.005,0.018,0.009,0.026,0.013l0.032,0.014c0.021,0.012,0.045,0.021,0.068,0.031l0.063,0.025
				c0.006,0.002,0.012,0.004,0.018,0.007l0.064,0.024c0.009,0.004,0.019,0.008,0.028,0.012l0.065,0.023
				c0.01,0.004,0.02,0.008,0.031,0.011l0.031,0.011c0.021,0.008,0.042,0.015,0.064,0.021l0.064,0.02
				c0.01,0.003,0.02,0.006,0.028,0.008l0.065,0.019c0.01,0.003,0.018,0.005,0.027,0.007l0.066,0.018
				c0.009,0.002,0.018,0.004,0.027,0.007l0.065,0.015c0.009,0.002,0.019,0.005,0.028,0.007l0.066,0.013
				c0.013,0.004,0.025,0.006,0.038,0.008l0.032,0.006c0.02,0.004,0.039,0.008,0.06,0.011l0.067,0.01
				c0.01,0.002,0.02,0.003,0.029,0.005l0.067,0.008c0.009,0.002,0.019,0.003,0.028,0.004l0.032,0.004
				c0.021,0.002,0.042,0.004,0.063,0.006l0.067,0.006c0.013,0.002,0.025,0.002,0.038,0.003l0.031,0.001
				c0.021,0.002,0.042,0.004,0.063,0.004l0.068,0.002c0.007,0,0.014,0,0.02,0.001l0.068,0.001c0.006,0,0.012,0,0.018,0
				s0.012,0,0.018,0l0.068-0.001c0.007-0.001,0.014-0.001,0.02-0.001l0.068-0.002c0.021,0,0.042-0.002,0.063-0.004l0.031-0.001
				c0.014-0.001,0.026-0.002,0.039-0.003l0.068-0.006c0.021-0.002,0.041-0.004,0.063-0.006l0.031-0.004
				c0.01-0.001,0.018-0.002,0.027-0.003l0.068-0.009c0.01-0.002,0.021-0.003,0.031-0.004l0.066-0.011
				c0.02-0.003,0.041-0.007,0.061-0.011l0.032-0.006c0.013-0.002,0.024-0.004,0.037-0.008l0.065-0.014
				c0.009-0.001,0.018-0.003,0.025-0.005l0.067-0.015c0.011-0.003,0.021-0.006,0.032-0.008l0.064-0.018
				c0.01-0.002,0.018-0.004,0.026-0.007l0.065-0.019c0.009-0.002,0.018-0.005,0.027-0.008l0.064-0.02
				c0.021-0.006,0.041-0.014,0.062-0.021l0.032-0.011c0.012-0.004,0.023-0.008,0.034-0.012l0.065-0.023
				c0.01-0.004,0.02-0.008,0.028-0.012l0.063-0.024c0.008-0.003,0.015-0.005,0.021-0.009l0.063-0.025
				c0.021-0.008,0.041-0.018,0.061-0.027l0.032-0.014c0.011-0.005,0.021-0.01,0.032-0.015l0.062-0.029
				c0.009-0.004,0.017-0.009,0.024-0.013l0.063-0.031c0.02-0.01,0.039-0.02,0.059-0.031l0.031-0.018
				c0.01-0.004,0.018-0.01,0.027-0.015l0.061-0.034c0.01-0.006,0.019-0.012,0.028-0.018l0.06-0.035
				c0.01-0.006,0.019-0.012,0.027-0.018L207,37.823c0.008-0.004,0.014-0.009,0.02-0.013l0.059-0.039
				c0.01-0.007,0.021-0.014,0.03-0.021l0.058-0.04c0.01-0.007,0.02-0.015,0.028-0.021l0.057-0.043
				c0.007-0.005,0.013-0.011,0.021-0.016l0.055-0.044c0.016-0.012,0.029-0.023,0.044-0.035l0.031-0.026
				c0.011-0.009,0.022-0.019,0.032-0.028l0.054-0.047c0.007-0.006,0.015-0.012,0.021-0.019l0.053-0.049
				c0.008-0.007,0.016-0.015,0.023-0.021l0.052-0.051c0.011-0.011,0.022-0.022,0.033-0.033l15.894-15.893
				c1.584-1.585,1.584-4.162-0.002-5.746c-0.764-0.765-1.785-1.187-2.871-1.187C219.602,14.451,218.58,14.873,217.815,15.638z
				 M221.793,19.616l-15.912,15.913c-0.004,0.003-0.006,0.006-0.009,0.008l-0.116,0.104c-0.002,0.001-0.003,0.002-0.004,0.004
				l-0.148,0.105l-0.212,0.109c-0.001,0-0.001,0-0.001,0l-0.141,0.051c-0.002,0.001-0.003,0.002-0.004,0.002l-0.217,0.051
				c-0.002,0-0.004,0.001-0.008,0.002l-0.107,0.013c-0.003,0-0.006,0.001-0.008,0.001l-0.062,0.004c-0.003,0-0.005,0-0.008,0
				l-0.062,0.002l-0.039-0.002h-0.023c-0.002,0-0.005,0-0.008,0l-0.063-0.004c-0.002,0-0.004,0-0.007-0.001l-0.107-0.013
				c-0.003-0.001-0.007-0.002-0.009-0.002l-0.216-0.051h-0.001l-0.123-0.045l-0.234-0.119l-0.217-0.162l-6.026-6.023
				c-0.608-0.609-0.608-1.602,0-2.211c0.293-0.293,0.686-0.455,1.105-0.455s0.813,0.162,1.105,0.454l3.978,3.979
				c0.234,0.235,0.553,0.366,0.885,0.366c0.331,0,0.648-0.131,0.883-0.365l13.926-13.924c0.293-0.293,0.686-0.455,1.104-0.455
				c0.42,0,0.813,0.162,1.105,0.455C222.403,18.015,222.403,19.007,221.793,19.616z"/>
		</g>
	</g>
</g>
<g id="Welcome_4_">
	<g id="Main-page_4_" transform="translate(-1401.000000, -6836.000000)">
		<g id="_x30_51-courier" transform="translate(1401.000000, 6836.000000)">
			<path id="Shape_21_" fill="#FFFFFF" d="M255.065,39.517c-0.525-0.444-1.313-0.379-1.758,0.147
				c-0.176,0.208-0.346,0.417-0.506,0.621c-0.425,0.543-0.329,1.327,0.213,1.752c0.229,0.179,0.5,0.265,0.769,0.265
				c0.37,0,0.737-0.164,0.983-0.479c0.141-0.179,0.291-0.364,0.446-0.548C255.656,40.749,255.591,39.962,255.065,39.517z"/>
			<path id="Shape_20_" fill="#FFFFFF" d="M269.942,7.544c0.214,0,0.426,0.007,0.631,0.02c0.027,0.002,0.055,0.003,0.082,0.003
				c0.652,0,1.201-0.506,1.244-1.166c0.045-0.688-0.476-1.282-1.164-1.327c-0.258-0.017-0.525-0.026-0.793-0.026
				c-0.689,0-1.248,0.559-1.248,1.248S269.252,7.544,269.942,7.544z"/>
			<path id="Shape_19_" fill="#FFFFFF" d="M298.635,57.446h-1.871v-3.743c0-5.029-1.4-9.933-4.051-14.18
				c-2.364-3.789-5.634-6.924-9.498-9.129c0.498-1.308,0.899-3.068,1.319-5.62c0.066-0.405,0.138-0.746,0.22-1.14
				c0.088-0.419,0.189-0.908,0.307-1.584h0.866c0.688,0,1.247-0.559,1.247-1.247c0-1.344-0.535-2.504-1.473-3.488
				c0.004-0.029,0.007-0.057,0.01-0.084c0.074-0.646,0.096-0.849,0.102-0.953c0.096-1.807-0.021-3.232-0.357-4.358
				c-1.082-3.623-3.135-6.645-5.938-8.741c-2.729-2.042-6.041-3.121-9.576-3.121s-6.847,1.08-9.576,3.122
				c-2.803,2.096-4.855,5.118-5.938,8.741c-0.331,1.106-0.449,2.498-0.363,4.254c0.006,0.123,0.037,0.431,0.1,1.059
				c0.003,0.029,0.006,0.06,0.01,0.091c-0.933,0.982-1.466,2.139-1.466,3.479c0,0.688,0.559,1.247,1.247,1.247h0.867
				c0.115,0.667,0.215,1.146,0.307,1.586c0.082,0.393,0.153,0.732,0.22,1.139c0.42,2.551,0.821,4.312,1.319,5.619
				c-3.864,2.205-7.134,5.34-9.498,9.13c-2.65,4.247-4.051,9.149-4.051,14.179v3.743h-1.871c-0.689,0-1.248,0.559-1.248,1.247
				c0,0.689,0.559,1.248,1.248,1.248h3.119h9.355h32.438h9.356h3.119c0.688,0,1.247-0.559,1.247-1.248
				C299.883,58.005,299.324,57.446,298.635,57.446z M256.819,12.635c1.857-6.218,6.886-10.081,13.123-10.081
				s11.266,3.863,13.123,10.082c0.219,0.73,0.313,1.724,0.279,2.953c-0.74-0.396-1.565-0.744-2.457-1.047
				c-0.081-0.787-0.297-1.467-0.332-1.571c-1.056-3.203-3.169-5.667-5.951-6.938c-0.626-0.286-1.366-0.011-1.652,0.616
				c-0.287,0.626-0.011,1.367,0.615,1.653c2.143,0.979,3.783,2.914,4.618,5.448c0.005,0.017,0.011,0.036,0.018,0.055
				c-2.548-0.556-5.409-0.823-8.261-0.823c-5.027,0-10.079,0.831-13.402,2.606C256.507,14.356,256.601,13.364,256.819,12.635z
				 M255.585,19.556c0.783-1.24,2.599-2.075,3.795-2.512c2.726-0.996,6.575-1.567,10.562-1.567s7.836,0.571,10.562,1.567
				c1.195,0.437,3.012,1.271,3.795,2.512H255.585z M282.526,22.051c-0.078,0.42-0.148,0.758-0.214,1.074
				c-0.085,0.404-0.164,0.786-0.239,1.244c-1.048,6.364-1.709,6.784-4.49,8.554c-0.465,0.295-0.989,0.629-1.573,1.024
				c-4.026,2.31-8.108,2.311-12.134,0c-0.585-0.395-1.109-0.729-1.574-1.024c-2.781-1.77-3.442-2.19-4.49-8.554
				c-0.075-0.457-0.154-0.838-0.238-1.242c-0.066-0.316-0.137-0.655-0.215-1.076H282.526L282.526,22.051z M284.912,57.446h-29.941
				v-4.99h13.723v2.495c0,0.689,0.559,1.248,1.248,1.248s1.248-0.559,1.248-1.248v-2.495h13.723V57.446L284.912,57.446z
				 M257.281,49.961l3.118-2.495h8.296v2.495H257.281z M271.19,49.961v-2.495h8.295l3.119,2.495H271.19z M294.269,57.446h-6.862
				v-6.181c0.002-0.02,0.004-0.038,0.004-0.058c0-0.387-0.178-0.731-0.455-0.96c-0.002-0.002-0.004-0.004-0.006-0.005
				c-0.02-0.017-0.039-0.033-0.059-0.048l-6.189-4.951c-0.222-0.177-0.496-0.273-0.779-0.273h-19.961
				c-0.283,0-0.558,0.097-0.779,0.273l-6.238,4.99c-0.002,0.002-0.004,0.004-0.006,0.005c-0.011,0.009-0.021,0.019-0.031,0.028
				c-0.018,0.015-0.035,0.03-0.052,0.047c-0.011,0.01-0.021,0.02-0.03,0.03c-0.016,0.017-0.031,0.034-0.047,0.052
				c-0.009,0.01-0.018,0.021-0.027,0.031c-0.016,0.02-0.029,0.039-0.043,0.059c-0.008,0.011-0.016,0.021-0.022,0.031
				c-0.019,0.028-0.036,0.058-0.054,0.088c-0.008,0.014-0.015,0.029-0.021,0.044c-0.009,0.017-0.018,0.034-0.025,0.052
				c-0.008,0.017-0.015,0.034-0.021,0.053c-0.006,0.016-0.012,0.031-0.018,0.047c-0.006,0.02-0.014,0.037-0.019,0.056
				c-0.005,0.02-0.011,0.04-0.015,0.06c-0.006,0.024-0.012,0.05-0.016,0.075c-0.005,0.024-0.009,0.048-0.012,0.072
				c-0.002,0.015-0.002,0.03-0.004,0.045c-0.002,0.024-0.003,0.05-0.004,0.073c0,0.01-0.001,0.018-0.001,0.026v6.238h-6.861v-3.743
				c0-8.801,4.672-16.797,12.266-21.131c0.556,0.682,1.226,1.221,2.071,1.796c-1.227,0.635-2.396,1.388-3.48,2.24
				c-0.541,0.427-0.635,1.211-0.209,1.752c0.246,0.313,0.611,0.476,0.981,0.476c0.271,0,0.542-0.087,0.771-0.267
				c0.982-0.772,2.044-1.454,3.156-2.024l1.189-0.609c0.051,0.035,0.101,0.067,0.152,0.103c0.025,0.017,0.051,0.033,0.077,0.048
				c2.41,1.392,4.882,2.098,7.349,2.098c0.001,0,0.002,0,0.004,0c2.467,0,4.941-0.705,7.353-2.098
				c0.026-0.016,0.052-0.031,0.076-0.049c0.569-0.386,1.091-0.717,1.552-1.01c1.346-0.855,2.32-1.521,3.081-2.455
				c7.594,4.334,12.266,12.33,12.266,21.131V57.446z"/>
		</g>
	</g>
</g>
<g id="Welcome_5_">
	<g id="Main-page_5_" transform="translate(-1521.000000, -6836.000000)">
		<g id="_x30_51-price-tag" transform="translate(1521.000000, 6836.000000)">
			<path id="Shape_27_" fill="#FFFFFF" d="M359.883,27.492V8.144c0-4.458-3.627-8.085-8.086-8.085h-19.348
				c-0.331,0-0.648,0.131-0.882,0.365l-3.782,3.782c-0.646-0.054-1.299-0.097-1.957-0.129c-8.32-0.403-15.422,1.048-18.09,3.697
				c-1.068,1.062-1.258,2.128-1.229,2.837c0.105,2.555,3.162,4.852,8.459,6.412L302.36,29.631c-1.521,1.522-2.359,3.553-2.359,5.718
				s0.838,4.195,2.359,5.717l16.382,16.381h-1.275c-0.688,0-1.247,0.559-1.247,1.248c0,0.688,0.559,1.247,1.247,1.247h24.951
				c0.688,0,1.247-0.559,1.247-1.247c0-0.689-0.559-1.248-1.247-1.248h-11.972l29.072-29.071
				C359.752,28.141,359.883,27.823,359.883,27.492z M309.003,10.508c-0.005-0.111-0.019-0.453,0.494-0.963
				c1.721-1.709,7.432-3.357,15.937-2.987l-8.433,8.433C311.216,13.535,309.045,11.52,309.003,10.508z M328.546,55.817
				c-1.05,1.05-2.454,1.629-3.952,1.629c-1.499,0-2.902-0.578-3.953-1.629l-16.517-16.517c-1.05-1.051-1.629-2.454-1.629-3.953
				c0-1.498,0.579-2.902,1.629-3.952L328.72,6.801c3.61,0.377,6.942,1.104,9.597,2.107c1.76,0.666,2.947,1.354,3.691,1.972
				c-0.898,0.903-1.455,2.147-1.455,3.52c0,0.388,0.045,0.764,0.129,1.126c0.006,0.03,0.014,0.061,0.021,0.091
				c0.003,0.013,0.006,0.026,0.01,0.039c0,0.001,0,0.002,0,0.003c0.56,2.145,2.513,3.731,4.83,3.731c2.751,0,4.989-2.238,4.989-4.99
				s-2.238-4.99-4.989-4.99c-0.443,0-0.872,0.059-1.281,0.167c-1.057-1.116-2.758-2.131-5.063-3.002
				c-2.35-0.889-5.178-1.572-8.243-2.01l2.01-2.011h18.831c3.083,0,5.591,2.508,5.591,5.591v18.831L328.546,55.817z M345.533,12.276
				c-0.005-0.124-0.018-0.247-0.036-0.37c0.015,0,0.03-0.002,0.046-0.002c1.375,0,2.494,1.119,2.494,2.495s-1.119,2.495-2.494,2.495
				c-0.859,0-1.617-0.436-2.066-1.098C345.217,14.562,345.573,13.232,345.533,12.276z"/>
			<path id="Shape_26_" fill="#FFFFFF" d="M353.503,10.6c-0.657,0.207-1.023,0.906-0.817,1.564c0.227,0.724,0.342,1.476,0.342,2.235
				c0,4.128-3.357,7.485-7.484,7.485c-4.128,0-7.486-3.357-7.486-7.485c0-0.688-0.559-1.247-1.247-1.247s-1.247,0.558-1.247,1.247
				c0,5.503,4.477,9.979,9.979,9.979s9.98-4.477,9.98-9.979c0-1.013-0.153-2.017-0.456-2.981
				C354.861,10.76,354.16,10.395,353.503,10.6z"/>
			<path id="Shape_25_" fill="#FFFFFF" d="M351.841,9.598c0.312,0,0.622-0.115,0.864-0.348c0.497-0.477,0.513-1.268,0.035-1.764
				c-0.204-0.213-0.42-0.419-0.64-0.61c-0.521-0.452-1.308-0.397-1.761,0.122c-0.452,0.52-0.397,1.308,0.122,1.76
				c0.165,0.143,0.325,0.297,0.479,0.457C351.186,9.47,351.514,9.598,351.841,9.598z"/>
			<path id="Shape_24_" fill="#FFFFFF" d="M336.399,38.416c0.23-0.322,0.437-0.654,0.611-0.99c1.117-2.146,0.912-4.779-0.524-6.708
				c-1.3-1.745-3.312-2.551-5.381-2.153c-1.481,0.283-2.894,1.085-4.26,1.86c-0.313,0.178-0.61,0.347-0.908,0.509
				c-1.827,0.996-3.57,1.066-4.665,0.188c-0.902-0.726-1.203-1.982-0.805-3.362c0.115-0.398,0.32-0.787,0.59-1.157l2.064,2.063
				c0.243,0.244,0.563,0.365,0.882,0.365s0.638-0.121,0.882-0.365c0.487-0.486,0.487-1.277,0-1.764l-1.99-1.99
				c0.898-0.595,1.921-1.047,2.867-1.279c0.668-0.164,1.078-0.84,0.913-1.51c-0.165-0.668-0.841-1.078-1.51-0.913
				c-1.331,0.327-2.8,0.979-4.07,1.901l-0.954-0.954c-0.486-0.487-1.276-0.487-1.764,0s-0.487,1.276,0,1.765l0.896,0.896
				c-0.543,0.676-0.966,1.428-1.203,2.248c-0.679,2.344-0.051,4.645,1.639,6.001c1.907,1.53,4.682,1.552,7.422,0.057
				c0.096-0.052,0.192-0.106,0.288-0.159l5.517,5.516c-1.199,0.943-2.561,1.404-3.407,1.137c-0.657-0.209-1.358,0.156-1.565,0.813
				c-0.209,0.657,0.155,1.358,0.813,1.566c0.42,0.133,0.855,0.195,1.3,0.195c1.58,0,3.253-0.787,4.627-1.943l1.317,1.316
				c0.244,0.244,0.563,0.365,0.883,0.365c0.318,0,0.639-0.121,0.881-0.365c0.488-0.486,0.488-1.276,0.001-1.764L336.399,38.416z
				 M334.797,36.272c-0.061,0.118-0.127,0.232-0.195,0.346l-4.904-4.905c0.65-0.324,1.287-0.585,1.877-0.698
				c1.124-0.216,2.185,0.22,2.91,1.194C335.353,33.375,335.475,34.97,334.797,36.272z"/>
			<path id="Shape_23_" fill="#FFFFFF" d="M315.968,42.602c-0.487-0.488-1.277-0.488-1.765-0.001s-0.487,1.276,0,1.765l0.51,0.51
				c0.244,0.244,0.563,0.366,0.883,0.366s0.639-0.122,0.882-0.365c0.487-0.487,0.487-1.276,0.001-1.765L315.968,42.602z"/>
			<path id="Shape_22_" fill="#FFFFFF" d="M327.24,48.58l-2.646,2.646l-5.293-5.293c-0.487-0.486-1.277-0.486-1.765,0
				c-0.487,0.487-0.487,1.277,0,1.765l5.293,5.294c0.486,0.486,1.126,0.729,1.765,0.729s1.277-0.242,1.764-0.729l2.646-2.646
				c0.488-0.488,0.488-1.277,0-1.766C328.518,48.094,327.727,48.094,327.24,48.58z"/>
		</g>
	</g>
</g>
</svg>
