<?xml version="1.0" encoding="UTF-8"?>
<svg width="34px" height="40px" viewBox="0 0 34 40" version="1.1" xmlns="http://www.w3.org/2000/svg" xmlns:xlink="http://www.w3.org/1999/xlink">
    <!-- Generator: Sketch 47.1 (45422) - http://www.bohemiancoding.com/sketch -->
    <title>051-24-hours</title>
    <desc>Created with Sketch.</desc>
    <defs></defs>
    <g id="Welcome" stroke="none" stroke-width="1" fill="none" fill-rule="evenodd">
        <g id="Main-page" transform="translate(-416.000000, -13842.000000)" fill-rule="nonzero" fill="#414851">
            <g id="Our-office" transform="translate(-869.000000, 12362.000000)">
                <g id="Group-7" transform="translate(1285.000000, 1225.000000)">
                    <g id="051-24-hours" transform="translate(0.000000, 255.000000)">
                        <path d="M31.0439766,26.0750877 L31.0368031,26.0683821 C29.8750097,24.9879142 28.8450682,24.237115 27.9023002,23.7911891 C29.9894737,21.6902144 31.2017934,18.8065497 31.2017934,15.8165302 C31.2017934,9.58814815 26.1345809,4.52101365 19.9062768,4.52101365 C17.4711111,4.52101365 15.0922417,5.32421053 13.1539961,6.7651462 C12.902768,5.68413255 12.2831969,4.4494347 11.2622222,2.96506823 C9.89076023,0.969824561 8.45879142,0 6.88452242,0 C5.01957115,0 3.50846004,1.3668616 2.17520468,2.57270955 C1.94152047,2.78409357 1.72070175,2.98385965 1.50580897,3.16881092 C0.696998051,3.84966862 0.205068226,4.99633528 0.0828070175,6.48561404 C-0.0984795322,8.69239766 0.528576998,11.6105263 1.84842105,14.7023782 C3.33567251,18.1863548 5.66495127,21.8269006 8.5811306,25.2265887 C15.2344639,33.0802339 22.3539181,36.5954776 26.4580897,36.5954776 C27.6505263,36.5954776 28.5986745,36.3079142 29.2762573,35.7409747 L29.2862378,35.7324756 C29.5132943,35.5363743 29.7557895,35.3373879 30.0124756,35.1269396 C31.52577,33.88577 33.2410916,32.4789084 33.3175049,30.4173879 C33.3701365,29.0025731 32.6264327,27.5822222 31.0439766,26.0750877 Z M13.1030019,8.99906433 C14.8991813,7.20810916 17.3669396,6.18448343 19.9063548,6.18448343 C25.2174659,6.18440546 29.5384795,10.5054191 29.5384795,15.8165302 C29.5384795,18.7042495 28.2128655,21.4762573 25.9784795,23.2932554 C25.9527485,23.2926316 25.9270955,23.2917739 25.9014425,23.2917739 C24.3575049,23.2917739 23.2634698,24.2191033 22.1193762,25.2212865 C22.1169591,25.2233918 22.1144639,25.2254191 22.1121248,25.2276023 C22.0873294,25.2492788 22.0625341,25.2710331 22.0376608,25.2927096 C21.9118129,25.402963 21.7840156,25.5150877 21.6506823,25.6303314 C21.582924,25.6893567 21.4879532,25.7498635 21.2979337,25.7498635 C20.5985185,25.7498635 18.7928265,25.011306 14.5595322,20.0672904 C12.7731774,17.965614 11.5461209,16.2898246 10.8081871,14.9440156 C10.0768811,13.6102924 9.86035088,12.6185575 10.2276023,12.2870955 C10.334191,12.1989864 10.44,12.1125146 10.5443275,12.0272125 C11.6472515,11.1246004 12.6923197,10.2679922 13.1030019,8.99906433 Z M28.9576608,33.8407797 C28.6945029,34.0566082 28.4459259,34.2605068 28.2043665,34.4690058 C27.8389084,34.7720078 27.2353216,34.9320858 26.4580897,34.9320858 C22.8580897,34.9320858 16.1253801,31.5584405 9.8468616,24.1474464 C7.03649123,20.8710331 4.79961014,17.3790253 3.37824561,14.0492788 C2.16265107,11.2016374 1.58097466,8.56382066 1.74050682,6.62167641 C1.82463938,5.59758285 2.12241715,4.82261209 2.5788694,4.43976608 L2.58682261,4.43306043 C2.81847953,4.23376218 3.04803119,4.02619883 3.29091618,3.80647173 C3.67118908,3.46253411 4.0688499,3.10292398 4.47649123,2.77871345 C4.9234308,3.27017544 5.62846004,4.09005848 6.37769981,5.13551657 C6.54003899,5.36218324 6.79532164,5.48280702 7.05450292,5.48280702 C7.22222222,5.48280702 7.39150097,5.4322807 7.53824561,5.32701754 C7.91157895,5.05949318 7.9974269,4.53988304 7.72982456,4.16647173 C7.03477583,3.19672515 6.38159844,2.41512671 5.90682261,1.88046784 C6.23282651,1.74409357 6.56,1.66346979 6.88452242,1.66346979 C7.85637427,1.66346979 8.8679922,2.41840156 9.89153996,3.90760234 C11.25154,5.88467836 11.7991423,7.33068226 11.5655361,8.32818713 C11.3588304,9.21122807 10.534425,9.88584795 9.49091618,10.739883 C9.38136452,10.8295517 9.27033138,10.9204678 9.15820663,11.0130214 L9.14222222,11.0265887 C8.0731384,11.9559454 8.14307992,13.5430019 9.34994152,15.7437037 C10.1426121,17.1893957 11.4322027,18.9559454 13.294269,21.1467446 C16.9547758,25.4219103 19.4980897,27.4131774 21.2980897,27.4131774 C21.8466277,27.4131774 22.3463548,27.2303314 22.7406628,26.8869396 C22.7480702,26.8805458 22.7550877,26.874386 22.7624172,26.8679922 C23.1874464,27.131462 23.8280702,27.539961 24.4898246,28.0037427 C25.0388304,28.388538 25.5122807,28.7483041 25.8969981,29.0728265 C26.0530994,29.2045224 26.2435088,29.2687719 26.4329045,29.2687719 C26.6695517,29.2687719 26.9045614,29.1684211 27.0690058,28.9733333 C27.3652242,28.6221442 27.3206238,28.0974659 26.9695906,27.8012476 C26.5470565,27.4448343 26.0339961,27.0545809 25.4446784,26.6414815 C24.9557895,26.2987914 24.4825731,25.9876803 24.0902924,25.7374659 C24.6976998,25.2672125 25.2652632,24.9550097 25.9015205,24.9550097 C26.9072904,24.9550097 28.2153606,25.7164133 29.900117,27.2825731 C31.0980897,28.4244834 31.6887329,29.4583236 31.6553606,30.3554776 C31.6067836,31.6682261 30.260039,32.7726316 28.9576608,33.8407797 Z" id="Shape"></path>
                        <path d="M9.13395712,8.38191033 C9.27196881,8.38191033 9.41177388,8.34744639 9.5405848,8.27508772 C9.94105263,8.05013645 10.0833528,7.54307992 9.85840156,7.14261209 C9.72740741,6.90947368 9.59766082,6.70354776 9.45037037,6.49465887 C9.18549708,6.11937622 8.66658869,6.02978558 8.29122807,6.29465887 C7.91586745,6.55953216 7.82635478,7.07844055 8.09122807,7.4537232 C8.20499025,7.61497076 8.30573099,7.77504873 8.40818713,7.95734893 C8.56070175,8.22908382 8.84304094,8.38191033 9.13395712,8.38191033 Z" id="Shape"></path>
                        <path d="M28.9725536,29.5252242 C28.6517739,29.1982846 28.1280312,29.1932943 27.7997661,29.5126706 C27.471501,29.8321248 27.4643275,30.3578168 27.7823782,30.6874074 C27.7861988,30.691384 27.8796101,30.78846 28.2407018,31.191345 C28.4050682,31.3745809 28.6322027,31.4679142 28.8602729,31.4679142 C29.0580117,31.4679142 29.2564522,31.3978168 29.4152047,31.2555166 C29.757193,30.9489279 29.7859649,30.4230799 29.4792982,30.0810916 C29.0928655,29.6497466 28.9893957,29.5423782 28.9725536,29.5252242 Z" id="Shape"></path>
                        <path d="M21.8127096,17.0069396 L24.5725536,17.0069396 L24.5725536,18.3639766 C24.5725536,18.674386 24.9519688,18.8353996 25.3197661,18.8353996 C25.6994932,18.8353996 26.0673684,18.674386 26.0673684,18.3639766 L26.0673684,17.0069396 L26.6077973,17.0069396 C26.8490448,17.0069396 27.0792203,16.6619883 27.0792203,16.317037 C27.0792203,15.9607018 26.9181287,15.6155166 26.6077973,15.6155166 L26.0673684,15.6155166 L26.0673684,14.4080312 C26.0673684,14.0745419 25.6994932,13.9366082 25.3197661,13.9366082 C24.9518908,13.9366082 24.5725536,14.0745419 24.5725536,14.4080312 L24.5725536,15.6155166 L23.2269786,15.6155166 L25.4348538,11.199922 C25.4693957,11.1309162 25.4923977,11.0618324 25.4923977,11.0042885 C25.4923977,10.6594932 25.0094347,10.4293177 24.7447953,10.4293177 C24.5035478,10.4293177 24.2507602,10.5328655 24.1125926,10.8204288 L21.3872125,16.1788694 C21.3296686,16.2824172 21.3065887,16.3859649 21.3065887,16.4778947 C21.3067446,16.811462 21.5253801,17.0069396 21.8127096,17.0069396 Z" id="Shape"></path>
                        <path d="M15.8867836,18.8353996 L19.9803509,18.8353996 C20.2335283,18.8353996 20.4518519,18.5133723 20.4518519,18.168499 C20.4518519,17.8234698 20.2332164,17.5246784 19.9803509,17.5246784 L16.7836257,17.5246784 L16.7836257,17.248577 C16.7836257,16.0526316 20.4287719,15.2477193 20.4287719,12.7640546 C20.4287719,11.3037037 19.1871345,10.4296296 17.8529435,10.4296296 C16.5767641,10.4296296 15.3807407,11.2346199 15.3807407,12.545575 C15.3807407,13.1665497 15.6683821,13.3504873 16.0592593,13.3504873 C16.5536842,13.3504873 16.8410136,13.0745419 16.8410136,12.7984405 C16.8410136,12.0855361 17.3009747,11.7865887 17.8644055,11.7865887 C18.6235478,11.7865887 18.9338012,12.3386355 18.9338012,12.8099805 C18.9338012,14.431345 15.231345,15.4088889 15.231345,17.248577 L15.231345,18.3640546 C15.2315789,18.6511501 15.6221442,18.8353996 15.8867836,18.8353996 Z" id="Shape"></path>
                        <path d="M25.002963,38.2586355 L8.36865497,38.2586355 C7.90939571,38.2586355 7.53692008,38.6311111 7.53692008,39.0903704 C7.53692008,39.5497076 7.90939571,39.9221053 8.36865497,39.9221053 L25.002963,39.9221053 C25.4622222,39.9221053 25.8346979,39.5497856 25.8346979,39.0903704 C25.8346979,38.6310331 25.4623002,38.2586355 25.002963,38.2586355 Z" id="Shape"></path>
                    </g>
                </g>
            </g>
        </g>
    </g>
</svg>