<?xml version="1.0" encoding="UTF-8"?>
<svg width="40px" height="40px" viewBox="0 0 40 40" version="1.1" xmlns="http://www.w3.org/2000/svg" xmlns:xlink="http://www.w3.org/1999/xlink">
    <!-- Generator: Sketch 47.1 (45422) - http://www.bohemiancoding.com/sketch -->
    <title>051-message</title>
    <desc>Created with Sketch.</desc>
    <defs></defs>
    <g id="Welcome" stroke="none" stroke-width="1" fill="none" fill-rule="evenodd">
        <g id="Main-page" transform="translate(-416.000000, -13912.000000)" fill-rule="nonzero" fill="#414851">
            <g id="Our-office" transform="translate(-869.000000, 12362.000000)">
                <g id="Group-7" transform="translate(1285.000000, 1225.000000)">
                    <g id="051-message" transform="translate(0.000000, 325.000000)">
                        <path d="M39.9178947,17.2937232 C39.9157895,17.2734503 39.9124366,17.2536452 39.9090058,17.2339181 C39.9076803,17.2269786 39.9072125,17.219961 39.905731,17.2130214 C39.9009747,17.1891618 39.8948148,17.16577 39.8880312,17.1426901 C39.8871735,17.139961 39.8867057,17.137232 39.8859259,17.134347 C39.8787524,17.1108772 39.8702534,17.0879532 39.8612086,17.0654191 C39.8601949,17.062924 39.8594932,17.0603509 39.8584795,17.0579337 C39.8497466,17.0366472 39.8396101,17.0159844 39.8290838,16.9957115 C39.8271345,16.9918908 39.8254971,16.9879922 39.8236257,16.9842495 C39.8138791,16.9660039 39.802963,16.948538 39.7919688,16.9311501 C39.7883821,16.925614 39.7853411,16.9196881 39.7815984,16.914152 C39.7712281,16.8984795 39.7594542,16.8837427 39.7481481,16.8689279 C39.742924,16.8623002 39.7384016,16.8552047 39.7330214,16.8487329 C39.7195322,16.8323587 39.7048733,16.8168421 39.6902924,16.8015595 C39.6862378,16.7973489 39.6826511,16.7927485 39.6785965,16.788616 L23.211384,0.321559454 C23.2,0.310175439 23.1878363,0.300194932 23.1761404,0.289590643 C23.1677973,0.282183236 23.159922,0.274307992 23.1512671,0.267290448 C23.1380897,0.256374269 23.1242885,0.246783626 23.1106433,0.236881092 C23.1023002,0.23079922 23.094425,0.224405458 23.08577,0.218635478 C23.0719688,0.209434698 23.0576218,0.201247563 23.0435088,0.192904483 C23.034308,0.187446394 23.0252632,0.181676413 23.0157505,0.176608187 C23.0022612,0.169278752 22.9883041,0.163118908 22.974347,0.156647173 C22.9635867,0.151578947 22.9529045,0.14619883 22.9418324,0.141520468 C22.9288889,0.136218324 22.9157115,0.131773879 22.9023002,0.127095517 C22.8898246,0.122573099 22.8774269,0.117816764 22.8647953,0.113918129 C22.8520078,0.110097466 22.8390643,0.107290448 22.8262768,0.104015595 C22.8127875,0.100584795 22.7992982,0.0967641326 22.785653,0.0940350877 C22.77154,0.0912280702 22.7573489,0.0895906433 22.7432359,0.0875633528 C22.7304483,0.0856140351 22.7178947,0.0833528265 22.7048733,0.0820272904 C22.6816374,0.0797660819 22.6582456,0.0788304094 22.6348538,0.0785185185 C22.6309552,0.0785185185 22.6270565,0.0778947368 22.622924,0.0778947368 C22.6169201,0.0778947368 22.6112281,0.0786744639 22.6052242,0.0788304094 C22.5839376,0.0792202729 22.5626511,0.08 22.5415205,0.0821052632 C22.5263938,0.0835087719 22.5118129,0.0862378168 22.4969981,0.0884990253 C22.4852242,0.0902923977 22.4731384,0.0916959064 22.4610526,0.093957115 C22.4449903,0.0971539961 22.4291618,0.101520468 22.4134893,0.105575049 C22.4031189,0.108304094 22.3926706,0.110487329 22.3824561,0.113528265 C22.3667836,0.1182846 22.3517349,0.123898635 22.3366082,0.129590643 C22.3262378,0.133333333 22.3157895,0.136764133 22.305575,0.140896686 C22.2910721,0.146900585 22.277115,0.153840156 22.2630019,0.160623782 C22.2526316,0.165614035 22.2420273,0.170214425 22.2318129,0.175672515 C22.2178558,0.183079922 22.2045224,0.191578947 22.1910331,0.199766082 C22.1812865,0.205692008 22.171384,0.211150097 22.1619493,0.217465887 C22.1462768,0.227836257 22.131462,0.239376218 22.1166472,0.250760234 C22.1100195,0.255906433 22.1030019,0.260506823 22.0965302,0.265808967 C22.0745419,0.28374269 22.0534113,0.302768031 22.0334503,0.32288499 L0.243664717,22.1129825 C0.242807018,22.1138402 0.242261209,22.1146199 0.241559454,22.1153216 C0.223157895,22.1338012 0.205614035,22.1530604 0.189083821,22.1731774 C0.184327485,22.1788694 0.18042885,22.1851072 0.175906433,22.1907992 C0.16374269,22.2065497 0.151500975,22.2220663 0.140506823,22.2385965 C0.137076023,22.2436647 0.134346979,22.2489669 0.131072125,22.2540351 C0.119688109,22.2718908 0.108538012,22.2899025 0.0984015595,22.308538 C0.0966861598,22.3121248 0.0949707602,22.3159454 0.0931773879,22.3195322 C0.0826510721,22.339961 0.0723586745,22.3607797 0.063625731,22.3822222 C0.0624561404,22.3846394 0.0618323587,22.3871345 0.0608966862,22.3895517 C0.0518518519,22.4121637 0.0433528265,22.4351657 0.0361793372,22.4586355 C0.0353216374,22.4612865 0.0348538012,22.4640936 0.0340740741,22.4669006 C0.0272904483,22.4900585 0.0211306043,22.5134503 0.016374269,22.5373879 C0.0150487329,22.5438596 0.0144249513,22.5505653 0.0133333333,22.557115 C0.00974658869,22.577232 0.00631578947,22.5973489 0.00428849903,22.6180897 C0.00148148148,22.6455361 0,22.6732164 0,22.7011306 C0,22.7290448 0.00148148148,22.7567251 0.00421052632,22.7841715 C0.00631578947,22.8048343 0.00966861598,22.8249513 0.0132553606,22.8450682 C0.0144249513,22.8516179 0.0150487329,22.8583236 0.0162962963,22.8647953 C0.0210526316,22.8887329 0.0272124756,22.9121248 0.0339961014,22.9353606 C0.0348538012,22.9380117 0.0353216374,22.9408187 0.0361013645,22.9436257 C0.0432748538,22.9670955 0.0517738791,22.9900195 0.0608187135,23.0125536 C0.0618323587,23.0149708 0.0624561404,23.0175439 0.0635477583,23.020039 C0.0722807018,23.0413255 0.0823391813,23.0619883 0.0929434698,23.0822612 C0.0948927875,23.0860819 0.096374269,23.0899805 0.0984015595,23.0938012 C0.108148148,23.1122027 0.119220273,23.1297466 0.130448343,23.1472904 C0.133879142,23.1526706 0.136764133,23.1585185 0.140350877,23.1638207 C0.150877193,23.1794932 0.162651072,23.194308 0.17411306,23.2092788 C0.179103314,23.2158285 0.183703704,23.222846 0.189083821,23.2292398 C0.202573099,23.245614 0.216998051,23.2611306 0.231812865,23.2763353 C0.235867446,23.2805458 0.239298246,23.2852242 0.243508772,23.2892788 L15.2907602,38.3365302 L11.6436647,38.3365302 C11.1843275,38.3365302 10.8119298,38.7089279 10.8119298,39.1682651 C10.8119298,39.6275244 11.1843275,40 11.6436647,40 L28.2778168,40 C28.737154,40 29.1095517,39.6275244 29.1095517,39.1682651 C29.1095517,38.7089279 28.737154,38.3365302 28.2778168,38.3365302 L19.3069006,38.3365302 L39.6785965,17.9648343 C39.6792203,17.9641326 39.6798441,17.9632749 39.6807018,17.9625731 C39.6991033,17.9440936 39.7166472,17.9248343 39.7330214,17.9047173 C39.7379337,17.8989474 39.7417544,17.8927096 39.7465107,17.8869396 C39.7585965,17.8712671 39.7706823,17.8557505 39.7815984,17.8393762 C39.7851852,17.834152 39.7880702,17.828616 39.791345,17.8233918 C39.802729,17.80577 39.8138012,17.7879142 39.8237037,17.7694347 C39.825653,17.765848 39.8271345,17.7621053 39.8290058,17.7584405 C39.8395322,17.7380117 39.8495906,17.717193 39.8585575,17.6957505 C39.8595712,17.6933333 39.8603509,17.6908382 39.8612865,17.6884211 C39.8703314,17.665809 39.8788304,17.642807 39.8860039,17.6193372 C39.8868616,17.6166082 39.8873294,17.6138012 39.8881092,17.6109942 C39.8948928,17.5878363 39.9010526,17.5645224 39.905809,17.5406628 C39.9072904,17.5337232 39.9077583,17.5267057 39.9090838,17.5196881 C39.9125146,17.499883 39.9158674,17.480078 39.9179727,17.459883 C39.9207018,17.4324366 39.9220273,17.4047563 39.9220273,17.3768421 C39.9219493,17.3488499 39.9206238,17.3211696 39.9178947,17.2937232 Z M2.83968811,21.8693957 L21.791423,2.91781676 L21.791423,21.8694737 L2.83968811,21.8694737 L2.83968811,21.8693957 Z M28.61154,18.2084211 L37.0824172,18.2084211 L17.2988694,37.9919688 L2.83968811,23.5327875 L16.4671345,23.5327875 L16.4671345,30.9054971 C16.4671345,31.3648343 16.8396881,31.737232 17.2988694,31.737232 C17.7582066,31.737232 18.1306043,31.3648343 18.1306043,30.9054971 L18.1306043,23.5327875 L22.6232359,23.5327875 C23.0824951,23.5327875 23.4549708,23.1604678 23.4549708,22.7010526 L23.4549708,2.91750487 L37.0824172,16.5450292 L28.61154,16.5450292 C28.1523587,16.5450292 27.7798051,16.9174269 27.7798051,17.3767641 C27.7798051,17.8361014 28.1522807,18.2084211 28.61154,18.2084211 Z" id="Shape"></path>
                        <path d="M25.9500195,16.5449513 L25.4509942,16.5449513 C24.9918129,16.5449513 24.6192593,16.9173489 24.6192593,17.3766862 C24.6192593,17.8360234 24.9918129,18.2084211 25.4509942,18.2084211 L25.9500195,18.2084211 C26.4093567,18.2084211 26.7817544,17.8360234 26.7817544,17.3766862 C26.7817544,16.9173489 26.4093567,16.5449513 25.9500195,16.5449513 Z" id="Shape"></path>
                        <path d="M17.2988694,32.7352047 C16.8396881,32.7352047 16.4671345,33.1076803 16.4671345,33.5669396 L16.4671345,34.0661209 C16.4671345,34.5254581 16.8396881,34.8978558 17.2988694,34.8978558 C17.7582066,34.8978558 18.1306043,34.5255361 18.1306043,34.0661209 L18.1306043,33.5669396 C18.1306043,33.1075244 17.7582846,32.7352047 17.2988694,32.7352047 Z" id="Shape"></path>
                    </g>
                </g>
            </g>
        </g>
    </g>
</svg>