<?xml version="1.0" encoding="UTF-8"?>
<svg width="170px" height="28px" viewBox="0 0 170 28" version="1.1" xmlns="http://www.w3.org/2000/svg" xmlns:xlink="http://www.w3.org/1999/xlink">
    <g stroke="none" stroke-width="1" fill="none" fill-rule="evenodd">
        <g id="Back-office.-Buy-tokens.-Pay-with-Coingate" transform="translate(-825.000000, -860.000000)">
            <g id="Group-3" transform="translate(570.000000, 652.000000)">
                <g id="btn" transform="translate(215.000000, 192.000000)">
                    <g id="Group" transform="translate(40.000000, 16.000000)">
                        <path d="M77.464,18.951 C76.8686637,19.6350034 76.1340044,20.176498 75.26,20.5755 C74.3859956,20.974502 73.3790057,21.174 72.239,21.174 C71.2003281,21.174 70.2408377,21.0030017 69.3605,20.661 C68.4801623,20.3189983 67.7170032,19.8345031 67.071,19.2075 C66.4249968,18.5804969 65.9183352,17.8300044 65.551,16.956 C65.1836648,16.0819956 65,15.1193386 65,14.068 C65,12.991328 65.1868315,12.0160044 65.5605,11.142 C65.9341685,10.2679956 66.45033,9.5238364 67.109,8.9095 C67.76767,8.29516359 68.5403289,7.82333498 69.427,7.494 C70.3136711,7.16466502 71.2699949,7 72.296,7 C73.2460047,7 74.1801621,7.16783165 75.0985,7.5035 C76.0168379,7.83916834 76.7609971,8.32999677 77.331,8.976 L75.127,11.18 C74.8229985,10.7619979 74.4240025,10.4516677 73.93,10.249 C73.4359975,10.0463323 72.9293359,9.945 72.41,9.945 C71.8399972,9.945 71.3175024,10.049499 70.8425,10.2585 C70.3674976,10.467501 69.9590017,10.7556648 69.617,11.123 C69.2749983,11.4903352 69.0090009,11.9241642 68.819,12.4245 C68.6289991,12.9248358 68.534,13.4726637 68.534,14.068 C68.534,14.676003 68.6289991,15.2333308 68.819,15.74 C69.0090009,16.2466692 69.2718317,16.6804982 69.6075,17.0415 C69.9431683,17.4025018 70.345331,17.6843323 70.814,17.887 C71.282669,18.0896677 71.7956639,18.191 72.353,18.191 C72.9990032,18.191 73.5626643,18.0643346 74.044,17.811 C74.5253357,17.5576654 74.9116652,17.2283354 75.203,16.823 L77.464,18.951 Z M93.505,14.03 C93.505,15.0940053 93.3213352,16.0661623 92.954,16.9465 C92.5866648,17.8268377 92.0768366,18.5804969 91.4245,19.2075 C90.7721634,19.8345031 89.9963378,20.3189983 89.097,20.661 C88.1976622,21.0030017 87.2223386,21.174 86.171,21.174 C85.1196614,21.174 84.1475045,21.0030017 83.2545,20.661 C82.3614955,20.3189983 81.5888366,19.8345031 80.9365,19.2075 C80.2841634,18.5804969 79.7743352,17.8268377 79.407,16.9465 C79.0396648,16.0661623 78.856,15.0940053 78.856,14.03 C78.856,12.953328 79.0396648,11.981171 79.407,11.1135 C79.7743352,10.245829 80.2841634,9.50800304 80.9365,8.9 C81.5888366,8.29199696 82.3614955,7.82333498 83.2545,7.494 C84.1475045,7.16466502 85.1196614,7 86.171,7 C87.2223386,7 88.1976622,7.16466502 89.097,7.494 C89.9963378,7.82333498 90.7721634,8.29199696 91.4245,8.9 C92.0768366,9.50800304 92.5866648,10.245829 92.954,11.1135 C93.3213352,11.981171 93.505,12.953328 93.505,14.03 Z M90.028,14.03 C90.028,13.4473304 89.933001,12.9026692 89.743,12.396 C89.5529991,11.8893308 89.2901684,11.4555018 88.9545,11.0945 C88.6188317,10.7334982 88.2135024,10.448501 87.7385,10.2395 C87.2634976,10.030499 86.7410029,9.926 86.171,9.926 C85.6009972,9.926 85.081669,10.030499 84.613,10.2395 C84.144331,10.448501 83.7390017,10.7334982 83.397,11.0945 C83.0549983,11.4555018 82.7921676,11.8893308 82.6085,12.396 C82.4248324,12.9026692 82.333,13.4473304 82.333,14.03 C82.333,14.638003 82.4279991,15.1984974 82.618,15.7115 C82.808001,16.2245026 83.0708317,16.6646648 83.4065,17.032 C83.7421684,17.3993352 84.144331,17.687499 84.613,17.8965 C85.081669,18.105501 85.6009972,18.21 86.171,18.21 C86.7410029,18.21 87.260331,18.105501 87.729,17.8965 C88.197669,17.687499 88.6029983,17.3993352 88.945,17.032 C89.2870017,16.6646648 89.5529991,16.2245026 89.743,15.7115 C89.933001,15.1984974 90.028,14.638003 90.028,14.03 Z M96.512,20.813 L96.512,7.361 L99.78,7.361 L99.78,20.813 L96.512,20.813 Z M111.964,20.813 L106.549,12.016 L106.492,12.016 L106.568,20.813 L103.414,20.813 L103.414,7.361 L107.119,7.361 L112.515,16.139 L112.572,16.139 L112.496,7.361 L115.65,7.361 L115.65,20.813 L111.964,20.813 Z M131.235,19.996 C130.57633,20.3380017 129.806838,20.6166656 128.9265,20.832 C128.046162,21.0473344 127.086672,21.155 126.048,21.155 C124.971328,21.155 123.980171,20.9840017 123.0745,20.642 C122.168829,20.2999983 121.389837,19.8186698 120.7375,19.198 C120.085163,18.5773302 119.575335,17.833171 119.208,16.9655 C118.840665,16.097829 118.657,15.1320053 118.657,14.068 C118.657,12.991328 118.843832,12.0160044 119.2175,11.142 C119.591169,10.2679956 120.10733,9.5238364 120.766,8.9095 C121.42467,8.29516359 122.197329,7.82333498 123.084,7.494 C123.970671,7.16466502 124.926995,7 125.953,7 C127.017005,7 128.004995,7.16149838 128.917,7.4845 C129.829005,7.80750161 130.569997,8.24133061 131.14,8.786 L129.088,11.123 C128.771332,10.7556648 128.353336,10.4548345 127.834,10.2205 C127.314664,9.9861655 126.72567,9.869 126.067,9.869 C125.496997,9.869 124.971336,9.97349895 124.49,10.1825 C124.008664,10.391501 123.590668,10.6828315 123.236,11.0565 C122.881332,11.4301685 122.605834,11.8734974 122.4095,12.3865 C122.213166,12.8995026 122.115,13.459997 122.115,14.068 C122.115,14.6886698 122.203666,15.2586641 122.381,15.778 C122.558334,16.2973359 122.821165,16.7438315 123.1695,17.1175 C123.517835,17.4911685 123.948497,17.782499 124.4615,17.9915 C124.974503,18.200501 125.56033,18.305 126.219,18.305 C126.599002,18.305 126.959998,18.2765003 127.302,18.2195 C127.644002,18.1624997 127.960665,18.0706673 128.252,17.944 L128.252,15.493 L125.687,15.493 L125.687,12.871 L131.235,12.871 L131.235,19.996 Z M143.875,20.813 L142.83,18.172 L140.24,10.813 L137.624,18.172 L136.636,20.813 L133.102,20.813 L138.745,7.361 L141.899,7.361 L147.485,20.813 L143.875,20.813 Z M154.083,10.135 L154.083,20.813 L150.834,20.813 L150.834,10.135 L147.034,10.135 L147.034,7.361 L157.883,7.361 L157.883,10.135 L154.083,10.135 Z M160.225,20.813 L160.225,7.361 L169.269,7.361 L169.269,10.116 L163.36,10.116 L163.36,12.643 L168.946,12.643 L168.946,15.246 L163.36,15.246 L163.36,18.039 L169.611,18.039 L169.611,20.813 L160.225,20.813 Z" id="COINGATE" fill="#042F5E"></path>
                        <g id="icon">
                            <path d="M13.8701299,27.9393039 C6.22192208,27.9393039 0,21.7170701 0,14.069174 C0,6.42096623 6.22192208,0.199044156 13.8701299,0.199044156 C16.7445195,0.199044156 19.502961,1.07114805 21.8468571,2.72091429 L18.796987,7.05400519 C17.3507532,6.03603117 15.6470649,5.49774545 13.8701299,5.49774545 C9.14368831,5.49774545 5.2987013,9.34273247 5.2987013,14.069174 C5.2987013,18.7953039 9.14368831,22.6406026 13.8701299,22.6406026 C18.4535065,22.6406026 22.7816104,17.5703688 25.3041039,12.8255377 L25.5001558,12.4536935 C26.6733506,10.2226286 29.1148052,5.58003117 33.1371429,2.5444987 C36.0975584,0.310316883 39.3098182,-0.000124675325 42.0698182,-0.000124675325 L42.1281039,-0.000124675325 L42.1196883,5.29857662 L42.0691948,5.29857662 C40.0965195,5.29857662 38.0393766,5.4830961 36.3291429,6.7737974 C33.2527792,9.09525195 31.1841039,13.0293818 30.1901299,14.9197714 L29.9828571,15.3128104 C27.9646753,19.109174 22.3542857,27.9393039 13.8701299,27.9393039" id="Fill-1" fill="#042F5E"></path>
                            <path d="M40.6537247,27.9487481 C35.6928935,27.9490597 31.3485818,24.7751377 28.6291013,22.7890597 L31.7547117,18.5102026 C34.984426,20.8693714 38.4098805,23.1266182 41.6751273,22.5640208 C46.2076987,21.7841766 47.9755948,18.8437091 48.664426,16.6188779 L41.8060364,16.6188779 L41.8060364,11.3201766 L54.3867117,11.3201766 L54.4022961,13.9539429 C54.4266078,18.0302026 51.9854649,26.166826 42.573413,27.7860468 C41.9251013,27.8973195 41.2839584,27.9487481 40.6537247,27.9487481" id="Fill-4" fill="#1981C4"></path>
                        </g>
                    </g>
                </g>
            </g>
        </g>
    </g>
</svg>