<?xml version="1.0" encoding="UTF-8"?>
<svg width="12px" height="20px" viewBox="0 0 12 20" version="1.1" xmlns="http://www.w3.org/2000/svg" xmlns:xlink="http://www.w3.org/1999/xlink">
    <g stroke="none" stroke-width="1" fill="none" fill-rule="evenodd">
        <g id="Back-office.-Buy-tokens.-Tokens-quantity" transform="translate(-655.000000, -715.000000)" fill="#80848b">
            <g id="Investment-calculator" transform="translate(526.000000, 510.000000)">
                <g id="Dycoin" transform="translate(109.000000, 190.000000)">
                    <g id="dylyver" transform="translate(20.000000, 15.000000)">
                        <path d="M4.76621072,0.718306584 C4.60493072,0.176843169 4.02317072,-0.123644636 3.46733072,0.0485504861 L3.46733072,0.0485504861 C2.91197072,0.220257803 2.59277072,0.797818779 2.75501072,1.33928219 L5.06381072,9.05684317 C5.22509072,9.59781878 5.80781072,9.89830658 6.36173072,9.72611146 L6.36173072,9.72611146 C6.91709072,9.55391634 7.23725072,8.97635536 7.07501072,8.43537975 L4.76621072,0.718306584 Z" id="Path"></path>
                        <path d="M4.10189072,10.2583066 C3.89645072,9.73245293 3.29261072,9.48220902 2.75261072,9.69928219 L2.75261072,9.69928219 C2.21357072,9.91635536 1.94237072,10.51977 2.14685072,11.0456237 L3.88781072,15.3407456 C4.09229072,15.8670871 4.69709072,16.1168432 5.23661072,15.89977 L5.23661072,15.89977 C5.77661072,15.6826968 6.04733072,15.07977 5.84237072,14.5544041 L4.10189072,10.2583066 Z" id="Path"></path>
                        <path d="M2.01389072,11.6548919 C1.82381072,11.1685505 1.23197072,10.9500139 0.692450719,11.1675749 L0.692450719,11.1675749 C0.152450719,11.3851359 -0.131229281,11.9563554 0.0593307192,12.4426968 L1.31357072,15.3002578 C1.50317072,15.7861115 2.09501072,16.0041602 2.63405072,15.7870871 L2.63405072,15.7870871 C3.17501072,15.5695261 3.45725072,14.99977 3.26765072,14.5119651 L2.01389072,11.6548919 Z" id="Path"></path>
                        <path d="M11.3090907,1.96806268 C11.4530907,1.46708707 11.1166107,0.926599267 10.5598107,0.761721218 L10.5598107,0.761721218 C10.0020507,0.596843169 9.43325072,0.870989511 9.29021072,1.37196512 L7.24541072,8.52367244 C7.10189072,9.02464805 7.43789072,9.56464805 7.99565072,9.7300139 L7.99565072,9.7300139 C8.55293072,9.89440414 9.12125072,9.62123341 9.26477072,9.1202578 L11.3090907,1.96806268 Z" id="Path"></path>
                        <path d="M5.08301072,11.0817212 C5.05229072,11.6568432 5.27885072,12.1329407 5.97005072,12.1329407 C6.65981072,12.1329407 7.34909072,12.1583066 8.60573072,12.1583066 C9.86189072,12.1583066 9.69005072,13.1100139 9.49325072,13.8353798 C9.29597072,14.5617212 8.58125072,16.3139163 8.18621072,17.0900139 C7.79309072,17.8665993 7.25021072,18.0407456 6.88157072,18.0168432 C6.51149072,17.9914773 3.28397072,17.9914773 2.66813072,17.9661115 C2.05277072,17.9407456 1.83101072,18.4178188 1.83101072,18.9431846 C1.83101072,19.4675749 2.07725072,19.8183066 2.61917072,19.8183066 C3.16205072,19.8183066 6.04349072,19.8690383 7.15229072,19.844648 C8.26061072,19.8183066 8.82749072,19.4934285 9.49325072,18.5670871 C10.1580507,17.6407456 10.8473307,15.8134285 11.2418907,14.5114773 C11.6359707,13.2085505 11.7593307,11.8075749 10.6505307,10.9563554 C9.54221072,10.104648 7.37453072,10.2548919 6.43805072,10.2300139 C6.43757072,10.2295261 5.13101072,10.1548919 5.08301072,11.0817212 Z" id="Path"></path>
                    </g>
                </g>
            </g>
        </g>
    </g>
</svg>