<?xml version="1.0" encoding="utf-8"?>
<!-- Generator: Adobe Illustrator 16.0.0, SVG Export Plug-In . SVG Version: 6.00 Build 0)  -->
<!DOCTYPE svg PUBLIC "-//W3C//DTD SVG 1.1//EN" "http://www.w3.org/Graphics/SVG/1.1/DTD/svg11.dtd">
<svg version="1.1" id="Layer_1" xmlns="http://www.w3.org/2000/svg" xmlns:xlink="http://www.w3.org/1999/xlink" x="0px" y="0px"
	 width="12px" height="20px" viewBox="0 0 12 20" enable-background="new 0 0 12 20" xml:space="preserve">
<g>
	<g id="Back-office.-Buy-tokens.-Tokens-quantity" transform="translate(-655.000000, -715.000000)">
		<g id="Investment-calculator" transform="translate(526.000000, 510.000000)">
			<g id="Dycoin" transform="translate(109.000000, 190.000000)">
				<g id="dylyver" transform="translate(20.000000, 15.000000)">
					<path id="Path" fill="#E22B49" d="M4.766,0.718c-0.161-0.542-0.743-0.842-1.299-0.67l0,0C2.912,0.22,2.593,0.798,2.755,1.339
						l2.309,7.717c0.161,0.541,0.744,0.842,1.298,0.669l0,0c0.555-0.172,0.875-0.75,0.713-1.291L4.766,0.718z"/>
					<path id="Path_1_" fill="#E22B49" d="M4.102,10.258c-0.206-0.526-0.81-0.776-1.35-0.559l0,0
						c-0.539,0.217-0.81,0.82-0.605,1.347l1.741,4.295c0.205,0.526,0.81,0.776,1.349,0.56l0,0c0.54-0.218,0.811-0.82,0.605-1.346
						L4.102,10.258z"/>
					<path id="Path_2_" fill="#E22B49" d="M2.014,11.654c-0.19-0.486-0.782-0.704-1.321-0.486l0,0
						c-0.54,0.217-0.824,0.789-0.633,1.275l1.254,2.857c0.189,0.485,0.782,0.703,1.321,0.486l0,0
						C3.175,15.569,3.457,15,3.268,14.512L2.014,11.654z"/>
					<path id="Path_3_" fill="#E22B49" d="M11.309,1.968c0.145-0.501-0.191-1.042-0.749-1.207l0,0
						c-0.558-0.165-1.126,0.109-1.27,0.61L7.246,8.523C7.102,9.024,7.438,9.564,7.996,9.73l0,0c0.557,0.165,1.125-0.109,1.269-0.61
						L11.309,1.968z"/>
					<path id="Path_4_" fill="#E22B49" d="M5.083,11.082c-0.031,0.574,0.196,1.051,0.887,1.051c0.69,0,1.379,0.025,2.635,0.025
						s1.084,0.951,0.888,1.678c-0.197,0.726-0.912,2.479-1.308,3.254c-0.393,0.777-0.936,0.951-1.305,0.927
						c-0.369-0.025-3.597-0.025-4.213-0.05c-0.615-0.025-0.837,0.451-0.837,0.977c0,0.524,0.246,0.875,0.788,0.875
						c0.543,0,3.424,0.051,4.533,0.026c1.108-0.026,1.676-0.352,2.341-1.278c0.665-0.926,1.354-2.753,1.749-4.055
						c0.394-1.303,0.518-2.704-0.592-3.555c-1.108-0.853-3.275-0.702-4.212-0.727C6.438,10.229,5.131,10.155,5.083,11.082z"/>
				</g>
			</g>
		</g>
	</g>
</g>
</svg>
