<?xml version="1.0" encoding="utf-8"?>
<!-- Generator: Adobe Illustrator 16.0.0, SVG Export Plug-In . SVG Version: 6.00 Build 0)  -->
<!DOCTYPE svg PUBLIC "-//W3C//DTD SVG 1.1//EN" "http://www.w3.org/Graphics/SVG/1.1/DTD/svg11.dtd">
<svg version="1.1" id="Layer_1" xmlns="http://www.w3.org/2000/svg" xmlns:xlink="http://www.w3.org/1999/xlink" x="0px" y="0px"
	 width="306px" height="102px" viewBox="0 0 306 102" enable-background="new 0 0 306 102" xml:space="preserve">
<title>Group 4</title>
<desc>Created with Sketch.</desc>
<g id="Welcome">
	<g id="Main-page" transform="translate(-389.000000, -23532.000000)">
		<g id="Partner_x27_s-programm" transform="translate(0.000000, 22616.000000)">
			<g id="content-container" transform="translate(330.000000, 686.000000)">
				<g id="How-it-works" transform="translate(60.000000, 60.000000)">
					<g id="step-1" transform="translate(0.000000, 171.000000)">
						<g id="Group-4">
							<g id="browser" transform="translate(34.000000, 35.000000)">
								<path id="Shape" fill="#CAD1D8" d="M1.5,0h29C31.328,0,32,0.671,32,1.5v27c0,0.828-0.672,1.5-1.5,1.5h-29
									C0.671,30,0,29.328,0,28.5v-27C0,0.671,0.671,0,1.5,0z"/>
								<g id="Group" transform="translate(1.000000, 1.437500)">
									<circle id="Oval" fill="#9BA7AF" cx="0.5" cy="0.562" r="1"/>
									<circle id="Oval_1_" fill="#9BA7AF" cx="2.5" cy="0.562" r="1"/>
									<circle id="Oval_2_" fill="#9BA7AF" cx="4.5" cy="0.562" r="1"/>
								</g>
								<path id="Shape_1_" fill="#FFFFFF" d="M1.5,4h29C30.776,4,31,4.224,31,4.5v24c0,0.276-0.224,0.5-0.5,0.5h-29
									C1.224,29,1,28.776,1,28.5v-24C1,4.224,1.224,4,1.5,4z"/>
								<path id="Shape_2_" fill="#E2E5E7" d="M7.5,1.5h23C30.776,1.5,31,1.724,31,2l0,0c0,0.276-0.224,0.5-0.5,0.5h-23
									C7.224,2.5,7,2.276,7,2l0,0C7,1.724,7.224,1.5,7.5,1.5z"/>
								<circle id="Oval_3_" fill="#ABE1FA" cx="16" cy="9.5" r="2.5"/>
								<path id="Shape_3_" fill="#1B6FAB" d="M17.865,11.15c-0.043-0.217-0.183-0.401-0.381-0.5l-0.635-0.38
									c-0.072-0.043-0.148-0.077-0.229-0.1V9.88c0.388-0.345,0.423-0.939,0.077-1.327c-0.345-0.388-0.939-0.422-1.327-0.077
									s-0.422,0.939-0.077,1.327c0.024,0.027,0.05,0.053,0.077,0.077v0.28c-0.081,0.023-0.158,0.057-0.23,0.1l-0.64,0.38
									c-0.197,0.099-0.338,0.283-0.38,0.5c0.887,1.037,2.446,1.158,3.482,0.271C17.696,11.331,17.784,11.244,17.865,11.15z"/>
								<g id="Group_1_" transform="translate(8.437500, 14.000000)">
									<path id="Shape_4_" fill="#CAD1D8" d="M14.563,0.5v2h-14v-2H14.563L14.563,0.5z M14.563,0h-14c-0.276,0-0.5,0.224-0.5,0.5
										v2c0,0.276,0.224,0.5,0.5,0.5h14c0.276,0,0.5-0.224,0.5-0.5v-2C15.063,0.224,14.839,0,14.563,0L14.563,0z"/>
									<path id="Shape_5_" fill="#CAD1D8" d="M14.563,4.5v2h-14v-2H14.563L14.563,4.5z M14.563,4h-14c-0.276,0-0.5,0.224-0.5,0.5
										v2c0,0.276,0.224,0.5,0.5,0.5h14c0.276,0,0.5-0.224,0.5-0.5v-2C15.063,4.224,14.839,4,14.563,4L14.563,4z"/>
								</g>
								<g id="Group_2_" transform="translate(8.937500, 14.500000)">
									<rect id="Rectangle-path" x="0.062" fill="#E2E5E7" width="14" height="2"/>
									<rect id="Rectangle-path_1_" x="0.062" y="4" fill="#E2E5E7" width="14" height="2"/>
									<path id="Shape_6_" fill="#E2E5E7" d="M4.063,8.5h7c0.828,0,1.5,0.672,1.5,1.5l0,0c0,0.828-0.672,1.5-1.5,1.5h-7
										c-0.829,0-1.5-0.672-1.5-1.5l0,0C2.563,9.172,3.234,8.5,4.063,8.5z"/>
								</g>
								<path id="Shape_7_" fill="#FD003A" d="M13,22.5h7c0.828,0,1.5,0.672,1.5,1.5l0,0c0,0.828-0.672,1.5-1.5,1.5h-7
									c-0.829,0-1.5-0.672-1.5-1.5l0,0C11.5,23.172,12.171,22.5,13,22.5z"/>
								<g id="Group_3_" transform="translate(14.000000, 23.437500)">
									<circle id="Oval_4_" fill="#E50027" cx="2.5" cy="0.563" r="1"/>
									<circle id="Oval_5_" fill="#E50027" cx="4.5" cy="0.563" r="1"/>
									<circle id="Oval_6_" fill="#E50027" cx="0.5" cy="0.563" r="1"/>
								</g>
							</g>
						</g>
					</g>
					<g id="Welcome_1_">
						<g id="Main-page_1_" transform="translate(-389.000000, -23677.000000)">
							<g id="Partner_x27_s-programm_1_" transform="translate(0.000000, 22616.000000)">
								<g id="content-container_1_" transform="translate(330.000000, 686.000000)">
									<g id="How-it-works_1_" transform="translate(60.000000, 60.000000)">
										<g id="step-2" transform="translate(0.000000, 316.000000)">
											<g id="Group-4_1_">
												<g id="megaphone-_x28_1_x29_" transform="translate(34.000000, 35.000000)">
													<path id="Shape_19_" fill="#3C3B40" d="M111.463,192.5H110c-0.519,0-0.938-0.42-0.938-0.938s0.419-0.938,0.938-0.938
														h1.463c0.364,0,0.588-0.203,0.689-0.325c0.182-0.217,0.257-0.503,0.205-0.784c-0.066-0.471-0.107-0.927-0.107-1.385
														v-0.318c0-0.518,0.42-0.938,0.938-0.938s0.938,0.42,0.938,0.938v0.318c0,0.368,0.033,0.736,0.084,1.087
														c0.145,0.794-0.078,1.64-0.617,2.284C113.063,192.137,112.285,192.5,111.463,192.5z"/>
													<path id="Shape_18_" fill="#C1001F" d="M111.313,200c-0.729,0-1.432-0.285-1.977-0.801
														c-2.964-2.964-4.586-6.888-4.586-11.068v-0.318c0-0.518,0.42-0.938,0.938-0.938h3.75c0.518,0,0.938,0.42,0.938,0.938
														v0.318c0,1.021,0.15,2.024,0.447,2.984c0.027,0.05,0.051,0.102,0.069,0.157c0.482,1.481,1.296,2.802,2.415,3.921
														c1.1,1.1,1.1,2.889,0,3.988c-0.006,0.006-0.012,0.012-0.018,0.018C112.744,199.715,112.042,200,111.313,200z
														 M112.644,198.519h0.032H112.644z"/>
													<path id="Shape_17_" fill="#FFFFFF" d="M125.105,172.044c-0.243-0.169-0.563-0.225-0.843-0.113l-11.375,3.75
														c-0.375,0.113-0.638,0.469-0.638,0.881v11.25c0,0.412,0.262,0.769,0.638,0.881l11.375,3.75
														c0.094,0.038,0.206,0.057,0.3,0.057c0.188,0,0.395-0.057,0.543-0.169c0.244-0.188,0.395-0.469,0.395-0.769v-18.75
														C125.5,172.513,125.35,172.231,125.105,172.044z"/>
													<path id="Shape_16_" fill="#CAD1D8" d="M125.5,182.188v9.375c0,0.3-0.15,0.581-0.395,0.769
														c-0.149,0.112-0.355,0.169-0.543,0.169c-0.094,0-0.206-0.019-0.3-0.057l-11.375-3.75
														c-0.375-0.112-0.638-0.469-0.638-0.881v-5.625H125.5z"/>
													<path id="Shape_15_" fill="#FD003A" d="M103.813,175.625c-1.557,0-2.813,1.256-2.813,2.813v7.5
														c0,1.557,1.256,2.813,2.813,2.813h9.225v-13.125H103.813z"/>
													<g id="Group_4_" transform="translate(0.000000, 7.500000)">
														<path id="Shape_14_" fill="#E50027" d="M113.037,174.688v6.563h-9.225c-1.557,0-2.813-1.256-2.813-2.813v-3.75
															H113.037z"/>
														<path id="Shape_13_" fill="#E50027" d="M130.807,171.125l-2.082-1.031c-0.281-0.131-0.637-0.131-0.899,0.056
															c-0.281,0.169-0.45,0.469-0.45,0.788v7.5c0,0.318,0.169,0.619,0.45,0.787c0.149,0.094,0.318,0.15,0.487,0.15
															c0.15,0,0.281-0.037,0.412-0.094l2.101-1.05c1.35-0.694,2.175-2.044,2.175-3.544S132.175,171.837,130.807,171.125z"/>
													</g>
													<path id="Shape_12_" fill="#FD003A" d="M126.438,170c-1.557,0-2.813,1.256-2.813,2.813v18.75
														c0,1.557,1.256,2.813,2.813,2.813s2.813-1.256,2.813-2.813v-18.75C129.25,171.256,127.994,170,126.438,170z"/>
													<path id="Shape_8_" fill="#C1001F" d="M133,182.188c0,1.5-0.825,2.85-2.175,3.544l-2.101,1.05
														c-0.131,0.057-0.262,0.094-0.412,0.094c-0.169,0-0.338-0.057-0.487-0.15c-0.281-0.168-0.45-0.469-0.45-0.787v-3.75H133
														z"/>
													<path id="Shape_9_" fill="#E50027" d="M129.25,182.188v9.375c0,1.557-1.256,2.813-2.813,2.813
														s-2.813-1.256-2.813-2.813v-9.375H129.25z"/>
													<path id="Shape_10_" fill="#FFFFFF" d="M109.438,181.25h-3.75c-0.518,0-0.938-0.419-0.938-0.938
														s0.42-0.938,0.938-0.938h3.75c0.518,0,0.938,0.419,0.938,0.938S109.955,181.25,109.438,181.25z"/>
													<path id="Shape_11_" fill="#CAD1D8" d="M109.438,185h-3.75c-0.518,0-0.938-0.419-0.938-0.938s0.42-0.938,0.938-0.938
														h3.75c0.518,0,0.938,0.419,0.938,0.938S109.955,185,109.438,185z"/>
												</g>
											</g>
										</g>
									</g>
								</g>
							</g>
						</g>
					</g>
					<g id="Welcome_2_">
						<g id="Main-page_2_" transform="translate(-389.000000, -23822.000000)">
							<g id="Partner_x27_s-programm_2_" transform="translate(0.000000, 22616.000000)">
								<g id="content-container_2_" transform="translate(330.000000, 686.000000)">
									<g id="How-it-works_2_" transform="translate(60.000000, 60.000000)">
										<g id="step-3" transform="translate(0.000000, 461.000000)">
											<g id="Group-4_2_">
												<g id="payment-method" transform="translate(35.000000, 30.000000)">
													<path id="Shape_39_" fill="#FFFFFF" d="M225.117,170.198h-18.461c-1.569,0-2.77,1.152-2.77,2.659v4.432v29.25
														c0,1.507,1.2,2.659,2.77,2.659h18.461c1.569,0,2.77-1.152,2.77-2.659v-29.25v-4.432
														C227.887,171.351,226.687,170.198,225.117,170.198z"/>
													<path id="Shape_38_" fill="#D6D6D6" d="M225.988,171.198v2.815v1.847v2.551v6.157v21.991
														c0,0.967-0.809,1.759-1.797,1.759h-18.867c-0.539,0-0.988-0.176-1.438-0.352c0.539,0.704,1.348,1.231,2.336,1.231
														h17.969c1.527,0,2.695-1.144,2.695-2.639v-29.028v-4.398C226.887,172.342,226.527,171.638,225.988,171.198z"/>
													<path id="Shape_37_" fill="#70B7E5" d="M225.887,177.102v26.193c0,0.452-0.363,0.903-0.909,0.903h-18.182
														c-0.546,0-0.909-0.361-0.909-0.903v-26.193c0-0.452,0.363-0.903,0.909-0.903h18.182
														C225.523,176.198,225.887,176.56,225.887,177.102z"/>
													<path id="Shape_36_" fill="#4C9CD6" d="M224.978,176.198h-18.182c-0.546,0-0.909,0.4-0.909,1v1c0-0.5,0.363-1,0.909-1
														h18.182c0.546,0,0.909,0.4,0.909,1v-1C225.887,176.598,225.523,176.198,224.978,176.198z"/>
													<circle id="Oval_7_" fill="#B9B9B9" cx="215.887" cy="207.198" r="1"/>
													<g id="Group_9_" transform="translate(3.000000, 25.000000)">
														<polygon id="Shape_35_" fill="#90CEF1" points="203.943,178.261 203.943,173.816 208.489,178.261 														"/>
														<polygon id="Shape_34_" fill="#90CEF1" points="203.943,172.038 210.308,178.261 212.126,178.261 203.943,170.261 
																													"/>
													</g>
													<g id="Group_8_">
														<path id="Shape_33_" fill="#DEDEDE" d="M204.859,203.622c0,0.801-0.363,1.601-0.908,2.135l0,0v-17.246l0,0
															c0.545,0.533,0.908,1.333,0.908,2.133V203.622z"/>
														<path id="Shape_32_" fill="#DEDEDE" d="M209.77,171.087c-0.818,0-1.637-0.355-2.182-0.889l0,0h14.546l0,0
															c-0.546,0.533-1.364,0.889-2.183,0.889H209.77z"/>
													</g>
													<g id="Group_7_" transform="translate(7.000000, 3.000000)">
														<path id="Shape_31_" fill="#35363E" d="M210.776,171.157h-4.546c-0.272,0-0.455-0.178-0.455-0.445l0,0
															c0-0.267,0.183-0.444,0.455-0.444h4.546c0.272,0,0.454,0.178,0.454,0.444l0,0
															C211.23,170.979,211.049,171.157,210.776,171.157z"/>
														<path id="Shape_30_" fill="#35363E" d="M204.412,170.268L204.412,170.268c0.273,0,0.455,0.178,0.455,0.444l0,0
															c0,0.267-0.182,0.445-0.455,0.445l0,0c-0.272,0-0.455-0.178-0.455-0.445l0,0
															C203.957,170.445,204.14,170.268,204.412,170.268z"/>
													</g>
													<path id="Shape_29_" fill="#E50027" d="M231.068,196.198h-16.363c-1,0-1.818-0.787-1.818-1.75v-10.5
														c0-0.962,0.818-1.75,1.818-1.75h16.363c1,0,1.818,0.788,1.818,1.75v10.5
														C232.887,195.411,232.068,196.198,231.068,196.198z"/>
													<g id="Group_6_" transform="translate(12.000000, 12.000000)">
														<polygon id="Shape_28_" fill="#FD003A" points="209.349,184.442 203.895,184.442 210.258,170.219 215.713,170.219 
																													"/>
														<polygon id="Shape_27_" fill="#FD003A" points="212.076,184.442 210.258,184.442 216.622,170.219 218.44,170.219 
																													"/>
													</g>
													<path id="Shape_26_" fill="#FF3866" d="M221.449,192.087h-6.125c-0.263,0-0.438-0.178-0.438-0.444
														s0.175-0.444,0.438-0.444h6.125c0.263,0,0.438,0.178,0.438,0.444S221.712,192.087,221.449,192.087z"/>
													<path id="Shape_25_" fill="#FF4A73" d="M222.406,192.087c0.288,0,0.48-0.178,0.48-0.444s-0.192-0.444-0.48-0.444
														h-4.135l-0.385,0.889H222.406L222.406,192.087z"/>
													<path id="Shape_24_" fill="#FF3866" d="M219.387,194.087h-4c-0.3,0-0.5-0.178-0.5-0.444s0.2-0.444,0.5-0.444h4
														c0.3,0,0.5,0.178,0.5,0.444S219.687,194.087,219.387,194.087z"/>
													<path id="Shape_23_" fill="#FF4A73" d="M219.402,194.087c0.291,0,0.484-0.178,0.484-0.444s-0.193-0.444-0.484-0.444
														h-2.129l-0.387,0.889H219.402L219.402,194.087z"/>
													<rect id="Rectangle-path_3_" x="212.887" y="184.198" fill="#014463" width="20" height="4"/>
													<g id="Group_5_" transform="translate(15.000000, 14.000000)">
														<polygon id="Shape_22_" fill="#0B5068" points="210.287,173.768 212.105,173.768 213.742,170.212 211.924,170.212 
																													"/>
														<polygon id="Shape_21_" fill="#0B5068" points="203.924,173.768 209.379,173.768 211.016,170.212 205.561,170.212 
																													"/>
													</g>
													<rect id="Rectangle-path_2_" x="225.887" y="196.198" fill="#494A52" width="1" height="1"/>
													<path id="Shape_20_" fill="#4C9CD6" d="M214.887,196.198c0.55,0.533,1.375,0.889,2.2,0.889h8.8v-0.889H214.887
														L214.887,196.198z"/>
												</g>
											</g>
										</g>
									</g>
								</g>
							</g>
						</g>
					</g>
				</g>
			</g>
		</g>
	</g>
</g>
</svg>
