<?xml version="1.0" encoding="UTF-8"?>
<svg width="117px" height="30px" viewBox="0 0 117 30" version="1.1" xmlns="http://www.w3.org/2000/svg" xmlns:xlink="http://www.w3.org/1999/xlink">
    <!-- Generator: Sketch 47.1 (45422) - http://www.bohemiancoding.com/sketch -->
    <title>paypal (1)</title>
    <desc>Created with Sketch.</desc>
    <defs></defs>
    <g id="Welcome" stroke="none" stroke-width="1" fill="none" fill-rule="evenodd">
        <g id="Back-office.-Buy-tokens.-Pay-with-PayPal" transform="translate(-852.000000, -833.000000)" fill-rule="nonzero">
            <g id="btn" transform="translate(812.000000, 818.000000)">
                <g id="paypal-(1)" transform="translate(40.000000, 15.000000)">
                    <path d="M89.9076923,7.89230769 L83.6307692,7.89230769 C83.2615385,7.89230769 82.8923077,8.26153846 82.7076923,8.63076923 L80.1230769,24.8769231 C80.1230769,25.2461538 80.3076923,25.4307692 80.6769231,25.4307692 L84,25.4307692 C84.3692308,25.4307692 84.5538462,25.2461538 84.5538462,24.8769231 L85.2923077,20.2615385 C85.2923077,19.8923077 85.6615385,19.5230769 86.2153846,19.5230769 L88.2461538,19.5230769 C92.4923077,19.5230769 94.8923077,17.4923077 95.4461538,13.4307692 C95.8153846,11.7692308 95.4461538,10.2923077 94.7076923,9.36923077 C93.6,8.44615385 91.9384615,7.89230769 89.9076923,7.89230769 M90.6461538,13.9846154 C90.2769231,16.2 88.6153846,16.2 86.9538462,16.2 L85.8461538,16.2 L86.5846154,11.9538462 C86.5846154,11.7692308 86.7692308,11.5846154 87.1384615,11.5846154 L87.5076923,11.5846154 C88.6153846,11.5846154 89.7230769,11.5846154 90.2769231,12.3230769 C90.6461538,12.5076923 90.6461538,13.0615385 90.6461538,13.9846154" id="Shape" fill="#139AD6"></path>
                    <g id="Group" transform="translate(34.846154, 7.846154)" fill="#263B80">
                        <path d="M9.83076923,0.0461538462 L3.55384615,0.0461538462 C3.18461538,0.0461538462 2.81538462,0.415384615 2.63076923,0.784615385 L0.0461538462,17.0307692 C0.0461538462,17.4 0.230769231,17.5846154 0.6,17.5846154 L3.55384615,17.5846154 C3.92307692,17.5846154 4.29230769,17.2153846 4.47692308,16.8461538 L5.21538462,12.4153846 C5.21538462,12.0461538 5.58461538,11.6769231 6.13846154,11.6769231 L8.16923077,11.6769231 C12.4153846,11.6769231 14.8153846,9.64615385 15.3692308,5.58461538 C15.7384615,3.92307692 15.3692308,2.44615385 14.6307692,1.52307692 C13.5230769,0.6 12.0461538,0.0461538462 9.83076923,0.0461538462 M10.5692308,6.13846154 C10.2,8.35384615 8.53846154,8.35384615 6.87692308,8.35384615 L5.95384615,8.35384615 L6.69230769,4.10769231 C6.69230769,3.92307692 6.87692308,3.73846154 7.24615385,3.73846154 L7.61538462,3.73846154 C8.72307692,3.73846154 9.83076923,3.73846154 10.3846154,4.47692308 C10.5692308,4.66153846 10.7538462,5.21538462 10.5692308,6.13846154" id="Shape"></path>
                        <path d="M28.8461538,5.95384615 L25.8923077,5.95384615 C25.7076923,5.95384615 25.3384615,6.13846154 25.3384615,6.32307692 L25.1538462,7.24615385 L24.9692308,6.87692308 C24.2307692,5.95384615 22.9384615,5.58461538 21.4615385,5.58461538 C18.1384615,5.58461538 15.1846154,8.16923077 14.6307692,11.6769231 C14.2615385,13.5230769 14.8153846,15.1846154 15.7384615,16.2923077 C16.6615385,17.4 17.9538462,17.7692308 19.6153846,17.7692308 C22.3846154,17.7692308 23.8615385,16.1076923 23.8615385,16.1076923 L23.6769231,17.0307692 C23.6769231,17.4 23.8615385,17.5846154 24.2307692,17.5846154 L27,17.5846154 C27.3692308,17.5846154 27.7384615,17.2153846 27.9230769,16.8461538 L29.5846154,6.50769231 C29.4,6.32307692 29.0307692,5.95384615 28.8461538,5.95384615 M24.6,11.8615385 C24.2307692,13.5230769 22.9384615,14.8153846 21.0923077,14.8153846 C20.1692308,14.8153846 19.4307692,14.4461538 19.0615385,14.0769231 C18.6923077,13.5230769 18.5076923,12.7846154 18.5076923,11.8615385 C18.6923077,10.2 20.1692308,8.90769231 21.8307692,8.90769231 C22.7538462,8.90769231 23.3076923,9.27692308 23.8615385,9.64615385 C24.4153846,10.2 24.6,11.1230769 24.6,11.8615385" id="Shape"></path>
                    </g>
                    <path d="M108.738462,13.8 L105.784615,13.8 C105.6,13.8 105.230769,13.9846154 105.230769,14.1692308 L105.046154,15.0923077 L104.861538,14.7230769 C104.123077,13.8 102.830769,13.4307692 101.353846,13.4307692 C98.0307692,13.4307692 95.0769231,16.0153846 94.5230769,19.5230769 C94.1538462,21.3692308 94.7076923,23.0307692 95.6307692,24.1384615 C96.5538462,25.2461538 97.8461538,25.6153846 99.5076923,25.6153846 C102.276923,25.6153846 103.753846,23.9538462 103.753846,23.9538462 L103.569231,24.8769231 C103.569231,25.2461538 103.753846,25.4307692 104.123077,25.4307692 L106.892308,25.4307692 C107.261538,25.4307692 107.630769,25.0615385 107.815385,24.6923077 L109.476923,14.3538462 C109.292308,14.1692308 109.107692,13.8 108.738462,13.8 M104.492308,19.7076923 C104.123077,21.3692308 102.830769,22.6615385 100.984615,22.6615385 C100.061538,22.6615385 99.3230769,22.2923077 98.9538462,21.9230769 C98.5846154,21.3692308 98.4,20.6307692 98.4,19.7076923 C98.5846154,18.0461538 100.061538,16.7538462 101.723077,16.7538462 C102.646154,16.7538462 103.2,17.1230769 103.753846,17.4923077 C104.492308,18.0461538 104.676923,18.9692308 104.492308,19.7076923" id="Shape" fill="#139AD6"></path>
                    <path d="M79.7538462,13.8 L76.6153846,13.8 C76.2461538,13.8 76.0615385,13.9846154 75.8769231,14.1692308 L71.8153846,20.4461538 L69.9692308,14.5384615 C69.7846154,14.1692308 69.6,13.9846154 69.0461538,13.9846154 L66.0923077,13.9846154 C65.7230769,13.9846154 65.5384615,14.3538462 65.5384615,14.7230769 L68.8615385,24.5076923 L65.7230769,28.9384615 C65.5384615,29.3076923 65.7230769,29.8615385 66.0923077,29.8615385 L69.0461538,29.8615385 C69.4153846,29.8615385 69.6,29.6769231 69.7846154,29.4923077 L79.9384615,14.9076923 C80.4923077,14.3538462 80.1230769,13.8 79.7538462,13.8" id="Shape" fill="#263B80"></path>
                    <path d="M112.246154,8.44615385 L109.661538,25.0615385 C109.661538,25.4307692 109.846154,25.6153846 110.215385,25.6153846 L112.8,25.6153846 C113.169231,25.6153846 113.538462,25.2461538 113.723077,24.8769231 L116.307692,8.63076923 C116.307692,8.26153846 116.123077,8.07692308 115.753846,8.07692308 L112.8,8.07692308 C112.615385,7.89230769 112.430769,8.07692308 112.246154,8.44615385" id="Shape" fill="#139AD6"></path>
                    <path d="M21.2307692,2.35384615 C19.9384615,0.876923077 17.5384615,0.138461538 14.2153846,0.138461538 L4.98461538,0.138461538 C4.43076923,0.138461538 3.87692308,0.692307692 3.69230769,1.24615385 L0,25.4307692 C0,25.9846154 0.369230769,26.3538462 0.738461538,26.3538462 L6.46153846,26.3538462 L7.93846154,17.3076923 L7.93846154,17.6769231 C8.12307692,17.1230769 8.67692308,16.5692308 9.23076923,16.5692308 L12,16.5692308 C17.3538462,16.5692308 21.4153846,14.3538462 22.7076923,8.26153846 C22.7076923,8.07692308 22.7076923,7.89230769 22.7076923,7.70769231 C22.5230769,7.70769231 22.5230769,7.70769231 22.7076923,7.70769231 C22.8923077,5.30769231 22.5230769,3.83076923 21.2307692,2.35384615" id="Shape" fill="#263B80"></path>
                    <path d="M22.5230769,7.70769231 L22.5230769,7.70769231 C22.5230769,7.89230769 22.5230769,8.07692308 22.5230769,8.26153846 C21.2307692,14.5384615 17.1692308,16.5692308 11.8153846,16.5692308 L9.04615385,16.5692308 C8.49230769,16.5692308 7.93846154,17.1230769 7.75384615,17.6769231 L5.90769231,28.9384615 C5.90769231,29.3076923 6.09230769,29.6769231 6.64615385,29.6769231 L11.4461538,29.6769231 C12,29.6769231 12.5538462,29.3076923 12.5538462,28.7538462 L12.5538462,28.5692308 L13.4769231,22.8461538 L13.4769231,22.4769231 C13.4769231,21.9230769 14.0307692,21.5538462 14.5846154,21.5538462 L15.3230769,21.5538462 C19.9384615,21.5538462 23.6307692,19.7076923 24.5538462,14.1692308 C24.9230769,11.9538462 24.7384615,9.92307692 23.6307692,8.63076923 C23.4461538,8.26153846 23.0769231,7.89230769 22.5230769,7.70769231" id="Shape" fill="#139AD6"></path>
                    <path d="M21.2307692,7.15384615 C21.0461538,7.15384615 20.8615385,6.96923077 20.6769231,6.96923077 C20.4923077,6.96923077 20.3076923,6.96923077 20.1230769,6.78461538 C19.3846154,6.6 18.6461538,6.6 17.7230769,6.6 L10.5230769,6.6 C10.3384615,6.6 10.1538462,6.6 9.96923077,6.78461538 C9.6,6.96923077 9.41538462,7.33846154 9.41538462,7.70769231 L7.93846154,17.3076923 L7.93846154,17.6769231 C8.12307692,17.1230769 8.67692308,16.5692308 9.23076923,16.5692308 L12,16.5692308 C17.3538462,16.5692308 21.4153846,14.3538462 22.7076923,8.26153846 C22.7076923,8.07692308 22.7076923,7.89230769 22.8923077,7.70769231 C22.5230769,7.52307692 22.3384615,7.33846154 21.9692308,7.33846154 C21.4153846,7.15384615 21.4153846,7.15384615 21.2307692,7.15384615" id="Shape" fill="#232C65"></path>
                </g>
            </g>
        </g>
    </g>
</svg>