<?xml version="1.0" encoding="utf-8"?>
<!-- Generator: Adobe Illustrator 16.0.0, SVG Export Plug-In . SVG Version: 6.00 Build 0)  -->
<!DOCTYPE svg PUBLIC "-//W3C//DTD SVG 1.1//EN" "http://www.w3.org/Graphics/SVG/1.1/DTD/svg11.dtd">
<svg version="1.1" id="Layer_1" xmlns="http://www.w3.org/2000/svg" xmlns:xlink="http://www.w3.org/1999/xlink" x="0px" y="0px"
	 width="20px" height="40px" viewBox="0 0 20 40" enable-background="new 0 0 20 40" xml:space="preserve">
<title>paypal</title>
<desc>Created with Sketch.</desc>
<g id="Welcome">
	<g id="Back-office.-Buy-tokens.-Choose-payment-method" transform="translate(-1162.000000, -873.000000)">
		<g id="Payment-method" transform="translate(375.000000, 510.000000)">
			<g id="paypal" transform="translate(765.000000, 347.000000)">
				<g id="Shape" transform="translate(22.000000, 16.000000)">
					<path fill="#888C92" d="M15.264,2.358C14.447,1.407,12.967,1,11.074,1H5.582C5.195,1,4.866,1.287,4.805,1.675L2.518,16.447
						c-0.045,0.291,0.176,0.555,0.465,0.555h3.391l0.851-5.501L7.2,11.674c0.06-0.388,0.388-0.675,0.774-0.675h1.612
						c3.166,0,5.643-1.31,6.367-5.098c0.022-0.112,0.057-0.328,0.057-0.328C16.215,4.171,16.008,3.221,15.264,2.358z"/>
					<path fill="#888C92" d="M16.867,6.291c-0.787,3.729-3.297,5.703-7.281,5.703H8.141L7.063,19h2.343
						c0.339,0,0.627-0.251,0.68-0.592l0.027-0.148l0.539-3.478l0.035-0.19C10.739,14.25,11.027,14,11.365,14h0.428
						c2.77,0,4.938-1.146,5.57-4.459C17.618,8.211,17.496,7.096,16.867,6.291z"/>
				</g>
			</g>
		</g>
	</g>
</g>
<g id="Welcome_1_">
	<g id="Back-office.-Buy-tokens.-Choose-payment-method_1_" transform="translate(-1162.000000, -873.000000)">
		<g id="Payment-method_1_" transform="translate(375.000000, 510.000000)">
			<g id="paypal_1_" transform="translate(765.000000, 347.000000)">
				<g id="Shape_1_" transform="translate(22.000000, 16.000000)">
					<path fill="#FFFFFF" d="M15.264,22.357C14.447,21.407,12.967,21,11.074,21H5.582c-0.387,0-0.716,0.287-0.777,0.675
						L2.518,36.447c-0.045,0.291,0.176,0.555,0.465,0.555h3.391l0.851-5.501L7.2,31.674c0.06-0.388,0.388-0.675,0.774-0.675h1.612
						c3.166,0,5.643-1.31,6.367-5.098c0.022-0.112,0.057-0.328,0.057-0.328C16.215,24.172,16.008,23.221,15.264,22.357z"/>
					<path fill="#FFFFFF" d="M16.867,26.291c-0.787,3.729-3.297,5.703-7.281,5.703H8.141L7.063,39h2.343
						c0.339,0,0.627-0.251,0.68-0.592l0.027-0.148l0.539-3.478l0.035-0.19C10.739,34.25,11.027,34,11.365,34h0.428
						c2.77,0,4.938-1.146,5.57-4.459C17.618,28.211,17.496,27.096,16.867,26.291z"/>
				</g>
			</g>
		</g>
	</g>
</g>
</svg>
